<?xml version="1.0" encoding="UTF-8"?><svg xmlns="http://www.w3.org/2000/svg" xmlns:xlink="http://www.w3.org/1999/xlink" fill-opacity="1" color-rendering="auto" color-interpolation="auto" text-rendering="auto" stroke="black" stroke-linecap="square" width="1173" stroke-miterlimit="10" shape-rendering="auto" stroke-opacity="1" fill="black" stroke-dasharray="none" font-weight="normal" stroke-width="1" height="6874" font-family="'Dialog'" font-style="normal" stroke-linejoin="miter" font-size="12px" stroke-dashoffset="0" image-rendering="auto">
  <!--Generated by ySVG 2.5-->
  <defs id="genericDefs"/>
  <g>
    <defs id="defs1">
      <clipPath clipPathUnits="userSpaceOnUse" id="clipPath1">
        <path d="M0 0 L1173 0 L1173 6874 L0 6874 L0 0 Z"/>
      </clipPath>
      <clipPath clipPathUnits="userSpaceOnUse" id="clipPath2">
        <path d="M-5 -15 L1168 -15 L1168 6859 L-5 6859 L-5 -15 Z"/>
      </clipPath>
    </defs>
    <g fill="white" text-rendering="geometricPrecision" shape-rendering="geometricPrecision" transform="translate(5,15)" stroke="white">
      <rect x="-5" width="1173" height="6874" y="-15" clip-path="url(#clipPath2)" stroke="none"/>
    </g>
    <g fill="rgb(42,161,152)" text-rendering="geometricPrecision" shape-rendering="geometricPrecision" transform="matrix(1,0,0,1,5,15)" stroke="rgb(42,161,152)">
      <ellipse rx="65" ry="44.5" clip-path="url(#clipPath2)" cx="361.8754" cy="44.5" stroke="none"/>
    </g>
    <g stroke-linecap="butt" transform="matrix(1,0,0,1,5,15)" fill="rgb(7,54,66)" text-rendering="geometricPrecision" shape-rendering="geometricPrecision" stroke="rgb(7,54,66)" stroke-miterlimit="1.45">
      <ellipse rx="65" fill="none" ry="44.5" clip-path="url(#clipPath2)" cx="361.8754" cy="44.5"/>
    </g>
    <g stroke-linecap="butt" font-size="16px" transform="matrix(1,0,0,1,5,15)" fill="rgb(253,246,227)" text-rendering="geometricPrecision" font-family="'Liberation Sans'" shape-rendering="geometricPrecision" stroke="rgb(253,246,227)" stroke-miterlimit="1.45">
      <text x="317.4066" xml:space="preserve" y="50.0469" clip-path="url(#clipPath2)" stroke="none">Betiği Başlat</text>
    </g>
    <g fill="rgb(253,246,227)" text-rendering="geometricPrecision" shape-rendering="geometricPrecision" transform="matrix(1,0,0,1,5,15)" stroke="rgb(253,246,227)">
      <path d="M241.8754 119 L481.8754 119 L481.8754 244 L241.8754 244 Z" stroke="none" clip-path="url(#clipPath2)"/>
    </g>
    <g stroke-linecap="butt" transform="matrix(1,0,0,1,5,15)" fill="rgb(7,54,66)" text-rendering="geometricPrecision" shape-rendering="geometricPrecision" stroke="rgb(7,54,66)" stroke-miterlimit="1.45">
      <path fill="none" d="M241.8754 119 L481.8754 119 L481.8754 244 L241.8754 244 Z" clip-path="url(#clipPath2)"/>
      <text x="286.7348" font-size="16px" y="169.1719" clip-path="url(#clipPath2)" font-family="'Liberation Sans'" stroke="none" xml:space="preserve">Temel Değişkenlerin </text>
      <text x="319.6332" font-size="16px" y="187.0469" clip-path="url(#clipPath2)" font-family="'Liberation Sans'" stroke="none" xml:space="preserve">Tanımlanıp </text>
      <text x="267.602" font-size="16px" y="204.9219" clip-path="url(#clipPath2)" font-family="'Liberation Sans'" stroke="none" xml:space="preserve">Tanımlanmadığını Denetle</text>
    </g>
    <g fill="rgb(211,54,130)" text-rendering="geometricPrecision" shape-rendering="geometricPrecision" transform="matrix(1,0,0,1,5,15)" stroke="rgb(211,54,130)">
      <path d="M361.8754 274 L511.8754 349 L361.8754 424 L211.8754 349 Z" stroke="none" clip-path="url(#clipPath2)"/>
    </g>
    <g stroke-linecap="butt" transform="matrix(1,0,0,1,5,15)" fill="rgb(7,54,66)" text-rendering="geometricPrecision" shape-rendering="geometricPrecision" stroke="rgb(7,54,66)" stroke-miterlimit="1.45">
      <path fill="none" d="M361.8754 274 L511.8754 349 L361.8754 424 L211.8754 349 Z" clip-path="url(#clipPath2)"/>
    </g>
    <g stroke-linecap="butt" font-size="16px" transform="matrix(1,0,0,1,5,15)" fill="rgb(253,246,227)" text-rendering="geometricPrecision" font-family="'Liberation Sans'" shape-rendering="geometricPrecision" stroke="rgb(253,246,227)" stroke-miterlimit="1.45">
      <text x="300.0824" xml:space="preserve" y="354.5469" clip-path="url(#clipPath2)" stroke="none">Tanımlanmış mı?</text>
    </g>
    <g fill="rgb(253,246,227)" text-rendering="geometricPrecision" shape-rendering="geometricPrecision" transform="matrix(1,0,0,1,5,15)" stroke="rgb(253,246,227)">
      <path d="M241.8754 1512.9062 L481.8754 1512.9062 L481.8754 1637.9062 L241.8754 1637.9062 Z" stroke="none" clip-path="url(#clipPath2)"/>
    </g>
    <g stroke-linecap="butt" transform="matrix(1,0,0,1,5,15)" fill="rgb(7,54,66)" text-rendering="geometricPrecision" shape-rendering="geometricPrecision" stroke="rgb(7,54,66)" stroke-miterlimit="1.45">
      <path fill="none" d="M241.8754 1512.9062 L481.8754 1512.9062 L481.8754 1637.9062 L241.8754 1637.9062 Z" clip-path="url(#clipPath2)"/>
      <text x="312.5199" font-size="16px" y="1572.0156" clip-path="url(#clipPath2)" font-family="'Liberation Sans'" stroke="none" xml:space="preserve">Dizinlerin Son</text>
      <text x="291.6176" font-size="16px" y="1589.8906" clip-path="url(#clipPath2)" font-family="'Liberation Sans'" stroke="none" xml:space="preserve"> Karakterini Denetle</text>
    </g>
    <g fill="rgb(211,54,130)" text-rendering="geometricPrecision" shape-rendering="geometricPrecision" transform="matrix(1,0,0,1,5,15)" stroke="rgb(211,54,130)">
      <path d="M361.8754 1667.9062 L511.8754 1742.9062 L361.8754 1817.9062 L211.8754 1742.9062 Z" stroke="none" clip-path="url(#clipPath2)"/>
    </g>
    <g stroke-linecap="butt" transform="matrix(1,0,0,1,5,15)" fill="rgb(7,54,66)" text-rendering="geometricPrecision" shape-rendering="geometricPrecision" stroke="rgb(7,54,66)" stroke-miterlimit="1.45">
      <path fill="none" d="M361.8754 1667.9062 L511.8754 1742.9062 L361.8754 1817.9062 L211.8754 1742.9062 Z" clip-path="url(#clipPath2)"/>
    </g>
    <g stroke-linecap="butt" font-size="16px" transform="matrix(1,0,0,1,5,15)" fill="rgb(253,246,227)" text-rendering="geometricPrecision" font-family="'Liberation Sans'" shape-rendering="geometricPrecision" stroke="rgb(253,246,227)" stroke-miterlimit="1.45">
      <text x="315.184" xml:space="preserve" y="1739.5156" clip-path="url(#clipPath2)" stroke="none">Son Karakter</text>
      <text x="344.0941" xml:space="preserve" y="1757.3906" clip-path="url(#clipPath2)" stroke="none">/ mı?</text>
    </g>
    <g fill="rgb(253,246,227)" text-rendering="geometricPrecision" shape-rendering="geometricPrecision" transform="matrix(1,0,0,1,5,15)" stroke="rgb(253,246,227)">
      <path d="M241.8754 1869.7812 L481.8754 1869.7812 L481.8754 1994.7812 L241.8754 1994.7812 Z" stroke="none" clip-path="url(#clipPath2)"/>
    </g>
    <g stroke-linecap="butt" transform="matrix(1,0,0,1,5,15)" fill="rgb(7,54,66)" text-rendering="geometricPrecision" shape-rendering="geometricPrecision" stroke="rgb(7,54,66)" stroke-miterlimit="1.45">
      <path fill="none" d="M241.8754 1869.7812 L481.8754 1869.7812 L481.8754 1994.7812 L241.8754 1994.7812 Z" clip-path="url(#clipPath2)"/>
      <text x="279.1684" font-size="16px" y="1928.8906" clip-path="url(#clipPath2)" font-family="'Liberation Sans'" stroke="none" xml:space="preserve">Hedef Dizini Barındıran</text>
      <text x="274.2856" font-size="16px" y="1946.7656" clip-path="url(#clipPath2)" font-family="'Liberation Sans'" stroke="none" xml:space="preserve">Dizin İçin İzinleri Denetle</text>
    </g>
    <g fill="rgb(211,54,130)" text-rendering="geometricPrecision" shape-rendering="geometricPrecision" transform="matrix(1,0,0,1,5,15)" stroke="rgb(211,54,130)">
      <path d="M361.8754 2024.7812 L511.8754 2099.7812 L361.8754 2174.7812 L211.8754 2099.7812 Z" stroke="none" clip-path="url(#clipPath2)"/>
    </g>
    <g stroke-linecap="butt" transform="matrix(1,0,0,1,5,15)" fill="rgb(7,54,66)" text-rendering="geometricPrecision" shape-rendering="geometricPrecision" stroke="rgb(7,54,66)" stroke-miterlimit="1.45">
      <path fill="none" d="M361.8754 2024.7812 L511.8754 2099.7812 L361.8754 2174.7812 L211.8754 2099.7812 Z" clip-path="url(#clipPath2)"/>
    </g>
    <g stroke-linecap="butt" font-size="16px" transform="matrix(1,0,0,1,5,15)" fill="rgb(253,246,227)" text-rendering="geometricPrecision" font-family="'Liberation Sans'" shape-rendering="geometricPrecision" stroke="rgb(253,246,227)" stroke-miterlimit="1.45">
      <text x="308.5238" xml:space="preserve" y="2096.3906" clip-path="url(#clipPath2)" stroke="none">Gerekli İzinlere</text>
      <text x="326.3012" xml:space="preserve" y="2114.2656" clip-path="url(#clipPath2)" stroke="none">Sahip Mi?</text>
    </g>
    <g fill="rgb(220,50,47)" text-rendering="geometricPrecision" shape-rendering="geometricPrecision" transform="matrix(1,0,0,1,5,15)" stroke="rgb(220,50,47)">
      <rect x="10" y="2055.2812" clip-path="url(#clipPath2)" width="120" rx="44.5" ry="44.5" height="89" stroke="none"/>
    </g>
    <g stroke-linecap="butt" transform="matrix(1,0,0,1,5,15)" fill="rgb(7,54,66)" text-rendering="geometricPrecision" shape-rendering="geometricPrecision" stroke="rgb(7,54,66)" stroke-miterlimit="1.45">
      <rect x="10" y="2055.2812" clip-path="url(#clipPath2)" fill="none" width="120" rx="44.5" ry="44.5" height="89"/>
    </g>
    <g stroke-linecap="butt" font-size="16px" transform="matrix(1,0,0,1,5,15)" fill="rgb(253,246,227)" text-rendering="geometricPrecision" font-family="'Liberation Sans'" shape-rendering="geometricPrecision" stroke="rgb(253,246,227)" stroke-miterlimit="1.45">
      <text x="49.9922" xml:space="preserve" y="2105.3281" clip-path="url(#clipPath2)" stroke="none">Exit 1</text>
    </g>
    <g fill="rgb(253,246,227)" text-rendering="geometricPrecision" shape-rendering="geometricPrecision" transform="matrix(1,0,0,1,5,15)" stroke="rgb(253,246,227)">
      <path d="M241.8754 2222.75 L481.8754 2222.75 L481.8754 2347.75 L241.8754 2347.75 Z" stroke="none" clip-path="url(#clipPath2)"/>
    </g>
    <g stroke-linecap="butt" transform="matrix(1,0,0,1,5,15)" fill="rgb(7,54,66)" text-rendering="geometricPrecision" shape-rendering="geometricPrecision" stroke="rgb(7,54,66)" stroke-miterlimit="1.45">
      <path fill="none" d="M241.8754 2222.75 L481.8754 2222.75 L481.8754 2347.75 L241.8754 2347.75 Z" clip-path="url(#clipPath2)"/>
      <text x="314.2973" font-size="16px" y="2281.8594" clip-path="url(#clipPath2)" font-family="'Liberation Sans'" stroke="none" xml:space="preserve">Hedef Dizinin</text>
      <text x="302.7348" font-size="16px" y="2299.7344" clip-path="url(#clipPath2)" font-family="'Liberation Sans'" stroke="none" xml:space="preserve">İzinlerini Denetle</text>
    </g>
    <g fill="rgb(211,54,130)" text-rendering="geometricPrecision" shape-rendering="geometricPrecision" transform="matrix(1,0,0,1,5,15)" stroke="rgb(211,54,130)">
      <path d="M361.8754 2377.75 L511.8754 2452.75 L361.8754 2527.75 L211.8754 2452.75 Z" stroke="none" clip-path="url(#clipPath2)"/>
    </g>
    <g stroke-linecap="butt" transform="matrix(1,0,0,1,5,15)" fill="rgb(7,54,66)" text-rendering="geometricPrecision" shape-rendering="geometricPrecision" stroke="rgb(7,54,66)" stroke-miterlimit="1.45">
      <path fill="none" d="M361.8754 2377.75 L511.8754 2452.75 L361.8754 2527.75 L211.8754 2452.75 Z" clip-path="url(#clipPath2)"/>
    </g>
    <g stroke-linecap="butt" font-size="16px" transform="matrix(1,0,0,1,5,15)" fill="rgb(253,246,227)" text-rendering="geometricPrecision" font-family="'Liberation Sans'" shape-rendering="geometricPrecision" stroke="rgb(253,246,227)" stroke-miterlimit="1.45">
      <text x="308.5238" xml:space="preserve" y="2449.3594" clip-path="url(#clipPath2)" stroke="none">Gerekli İzinlere</text>
      <text x="326.3012" xml:space="preserve" y="2467.2344" clip-path="url(#clipPath2)" stroke="none">Sahip Mi?</text>
    </g>
    <g fill="rgb(253,246,227)" text-rendering="geometricPrecision" shape-rendering="geometricPrecision" transform="matrix(1,0,0,1,5,15)" stroke="rgb(253,246,227)">
      <path d="M241.8754 2579.625 L481.8754 2579.625 L481.8754 2704.625 L241.8754 2704.625 Z" stroke="none" clip-path="url(#clipPath2)"/>
    </g>
    <g stroke-linecap="butt" transform="matrix(1,0,0,1,5,15)" fill="rgb(7,54,66)" text-rendering="geometricPrecision" shape-rendering="geometricPrecision" stroke="rgb(7,54,66)" stroke-miterlimit="1.45">
      <path fill="none" d="M241.8754 2579.625 L481.8754 2579.625 L481.8754 2704.625 L241.8754 2704.625 Z" clip-path="url(#clipPath2)"/>
    </g>
    <g font-size="16px" stroke-linecap="butt" transform="matrix(1,0,0,1,5,15)" text-rendering="geometricPrecision" font-family="'Liberation Sans'" shape-rendering="geometricPrecision" stroke-miterlimit="1.45">
      <text x="281.8168" xml:space="preserve" y="2647.6719" clip-path="url(#clipPath2)" stroke="none">Alınan Son Yedeği Bul</text>
    </g>
    <g fill="rgb(211,54,130)" text-rendering="geometricPrecision" shape-rendering="geometricPrecision" transform="matrix(1,0,0,1,5,15)" stroke="rgb(211,54,130)">
      <path d="M361.8754 2738.625 L511.8754 2813.625 L361.8754 2888.625 L211.8754 2813.625 Z" stroke="none" clip-path="url(#clipPath2)"/>
    </g>
    <g stroke-linecap="butt" transform="matrix(1,0,0,1,5,15)" fill="rgb(7,54,66)" text-rendering="geometricPrecision" shape-rendering="geometricPrecision" stroke="rgb(7,54,66)" stroke-miterlimit="1.45">
      <path fill="none" d="M361.8754 2738.625 L511.8754 2813.625 L361.8754 2888.625 L211.8754 2813.625 Z" clip-path="url(#clipPath2)"/>
    </g>
    <g stroke-linecap="butt" font-size="16px" transform="matrix(1,0,0,1,5,15)" fill="rgb(253,246,227)" text-rendering="geometricPrecision" font-family="'Liberation Sans'" shape-rendering="geometricPrecision" stroke="rgb(253,246,227)" stroke-miterlimit="1.45">
      <text x="292.5043" xml:space="preserve" y="2819.1719" clip-path="url(#clipPath2)" stroke="none">Son Yedek Var mı?</text>
    </g>
    <g fill="rgb(253,246,227)" text-rendering="geometricPrecision" shape-rendering="geometricPrecision" transform="matrix(1,0,0,1,5,15)" stroke="rgb(253,246,227)">
      <path d="M241.8754 2940.5 L481.8754 2940.5 L481.8754 3065.5 L241.8754 3065.5 Z" stroke="none" clip-path="url(#clipPath2)"/>
    </g>
    <g stroke-linecap="butt" transform="matrix(1,0,0,1,5,15)" fill="rgb(7,54,66)" text-rendering="geometricPrecision" shape-rendering="geometricPrecision" stroke="rgb(7,54,66)" stroke-miterlimit="1.45">
      <path fill="none" d="M241.8754 2940.5 L481.8754 2940.5 L481.8754 3065.5 L241.8754 3065.5 Z" clip-path="url(#clipPath2)"/>
    </g>
    <g font-size="16px" stroke-linecap="butt" transform="matrix(1,0,0,1,5,15)" text-rendering="geometricPrecision" font-family="'Liberation Sans'" shape-rendering="geometricPrecision" stroke-miterlimit="1.45">
      <text x="288.4887" xml:space="preserve" y="2990.6719" clip-path="url(#clipPath2)" stroke="none">Son Yedeğin Güncel</text>
      <text x="303.6254" xml:space="preserve" y="3008.5469" clip-path="url(#clipPath2)" stroke="none">Olup Olmadığını</text>
      <text x="334.3012" xml:space="preserve" y="3026.4219" clip-path="url(#clipPath2)" stroke="none">Denetle</text>
    </g>
    <g fill="rgb(211,54,130)" text-rendering="geometricPrecision" shape-rendering="geometricPrecision" transform="matrix(1,0,0,1,5,15)" stroke="rgb(211,54,130)">
      <path d="M361.8754 3095.5 L511.8754 3170.5 L361.8754 3245.5 L211.8754 3170.5 Z" stroke="none" clip-path="url(#clipPath2)"/>
    </g>
    <g stroke-linecap="butt" transform="matrix(1,0,0,1,5,15)" fill="rgb(7,54,66)" text-rendering="geometricPrecision" shape-rendering="geometricPrecision" stroke="rgb(7,54,66)" stroke-miterlimit="1.45">
      <path fill="none" d="M361.8754 3095.5 L511.8754 3170.5 L361.8754 3245.5 L211.8754 3170.5 Z" clip-path="url(#clipPath2)"/>
    </g>
    <g stroke-linecap="butt" font-size="16px" transform="matrix(1,0,0,1,5,15)" fill="rgb(253,246,227)" text-rendering="geometricPrecision" font-family="'Liberation Sans'" shape-rendering="geometricPrecision" stroke="rgb(253,246,227)" stroke-miterlimit="1.45">
      <text x="321.4145" xml:space="preserve" y="3176.0469" clip-path="url(#clipPath2)" stroke="none">Güncel Mi?</text>
    </g>
    <g fill="rgb(211,54,130)" text-rendering="geometricPrecision" shape-rendering="geometricPrecision" transform="matrix(1,0,0,1,5,15)" stroke="rgb(211,54,130)">
      <path d="M361.8754 3297.375 L511.8754 3372.375 L361.8754 3447.375 L211.8754 3372.375 Z" stroke="none" clip-path="url(#clipPath2)"/>
    </g>
    <g stroke-linecap="butt" transform="matrix(1,0,0,1,5,15)" fill="rgb(7,54,66)" text-rendering="geometricPrecision" shape-rendering="geometricPrecision" stroke="rgb(7,54,66)" stroke-miterlimit="1.45">
      <path fill="none" d="M361.8754 3297.375 L511.8754 3372.375 L361.8754 3447.375 L211.8754 3372.375 Z" clip-path="url(#clipPath2)"/>
    </g>
    <g stroke-linecap="butt" font-size="16px" transform="matrix(1,0,0,1,5,15)" fill="rgb(253,246,227)" text-rendering="geometricPrecision" font-family="'Liberation Sans'" shape-rendering="geometricPrecision" stroke="rgb(253,246,227)" stroke-miterlimit="1.45">
      <text x="309.4184" xml:space="preserve" y="3368.9844" clip-path="url(#clipPath2)" stroke="none">Birikimli Yedek</text>
      <text x="300.5238" xml:space="preserve" y="3386.8594" clip-path="url(#clipPath2)" stroke="none"> Alma Seçildi Mi?</text>
    </g>
    <g fill="rgb(253,246,227)" text-rendering="geometricPrecision" shape-rendering="geometricPrecision" transform="matrix(1,0,0,1,5,15)" stroke="rgb(253,246,227)">
      <path d="M241.8754 3848.3125 L481.8754 3848.3125 L481.8754 3973.3125 L241.8754 3973.3125 Z" stroke="none" clip-path="url(#clipPath2)"/>
    </g>
    <g stroke-linecap="butt" transform="matrix(1,0,0,1,5,15)" fill="rgb(7,54,66)" text-rendering="geometricPrecision" shape-rendering="geometricPrecision" stroke="rgb(7,54,66)" stroke-miterlimit="1.45">
      <path fill="none" d="M241.8754 3848.3125 L481.8754 3848.3125 L481.8754 3973.3125 L241.8754 3973.3125 Z" clip-path="url(#clipPath2)"/>
    </g>
    <g font-size="16px" stroke-linecap="butt" transform="matrix(1,0,0,1,5,15)" text-rendering="geometricPrecision" font-family="'Liberation Sans'" shape-rendering="geometricPrecision" stroke-miterlimit="1.45">
      <text x="296.9496" xml:space="preserve" y="3916.3594" clip-path="url(#clipPath2)" stroke="none">Son Yedeği Çıkart</text>
    </g>
    <g fill="rgb(220,50,47)" text-rendering="geometricPrecision" shape-rendering="geometricPrecision" transform="matrix(1,0,0,1,5,15)" stroke="rgb(220,50,47)">
      <rect x="593.7508" y="2408.25" clip-path="url(#clipPath2)" width="120" rx="44.5" ry="44.5" height="89" stroke="none"/>
    </g>
    <g stroke-linecap="butt" transform="matrix(1,0,0,1,5,15)" fill="rgb(7,54,66)" text-rendering="geometricPrecision" shape-rendering="geometricPrecision" stroke="rgb(7,54,66)" stroke-miterlimit="1.45">
      <rect x="593.7508" y="2408.25" clip-path="url(#clipPath2)" fill="none" width="120" rx="44.5" ry="44.5" height="89"/>
    </g>
    <g stroke-linecap="butt" font-size="16px" transform="matrix(1,0,0,1,5,15)" fill="rgb(253,246,227)" text-rendering="geometricPrecision" font-family="'Liberation Sans'" shape-rendering="geometricPrecision" stroke="rgb(253,246,227)" stroke-miterlimit="1.45">
      <text x="633.743" xml:space="preserve" y="2458.2969" clip-path="url(#clipPath2)" stroke="none">Exit 1</text>
    </g>
    <g fill="rgb(181,137,0)" text-rendering="geometricPrecision" shape-rendering="geometricPrecision" transform="matrix(1,0,0,1,5,15)" stroke="rgb(181,137,0)">
      <path d="M968.8448 2958.5 L1107.7198 2958.5 Q1085.4698 3003 1107.7198 3047.5 L968.8448 3047.5 Q946.5948 3003 968.8448 2958.5 Z" stroke="none" clip-path="url(#clipPath2)"/>
    </g>
    <g stroke-linecap="butt" transform="matrix(1,0,0,1,5,15)" fill="rgb(7,54,66)" text-rendering="geometricPrecision" shape-rendering="geometricPrecision" stroke="rgb(7,54,66)" stroke-miterlimit="1.45">
      <path fill="none" d="M968.8448 2958.5 L1107.7198 2958.5 Q1085.4698 3003 1107.7198 3047.5 L968.8448 3047.5 Q946.5948 3003 968.8448 2958.5 Z" clip-path="url(#clipPath2)"/>
    </g>
    <g stroke-linecap="butt" font-size="16px" transform="matrix(1,0,0,1,5,15)" fill="rgb(253,246,227)" text-rendering="geometricPrecision" font-family="'Liberation Sans'" shape-rendering="geometricPrecision" stroke="rgb(253,246,227)" stroke-miterlimit="1.45">
      <text x="975.1222" xml:space="preserve" y="3008.5469" clip-path="url(#clipPath2)" stroke="none">Son Yedek=Yok</text>
    </g>
    <g fill="rgb(133,153,0)" text-rendering="geometricPrecision" shape-rendering="geometricPrecision" transform="matrix(1,0,0,1,5,15)" stroke="rgb(133,153,0)">
      <rect x="10" y="3126" clip-path="url(#clipPath2)" width="120" rx="44.5" ry="44.5" height="89" stroke="none"/>
    </g>
    <g stroke-linecap="butt" transform="matrix(1,0,0,1,5,15)" fill="rgb(7,54,66)" text-rendering="geometricPrecision" shape-rendering="geometricPrecision" stroke="rgb(7,54,66)" stroke-miterlimit="1.45">
      <rect x="10" y="3126" clip-path="url(#clipPath2)" fill="none" width="120" rx="44.5" ry="44.5" height="89"/>
    </g>
    <g stroke-linecap="butt" font-size="16px" transform="matrix(1,0,0,1,5,15)" fill="rgb(253,246,227)" text-rendering="geometricPrecision" font-family="'Liberation Sans'" shape-rendering="geometricPrecision" stroke="rgb(253,246,227)" stroke-miterlimit="1.45">
      <text x="49.9922" xml:space="preserve" y="3176.0469" clip-path="url(#clipPath2)" stroke="none">Exit 0</text>
    </g>
    <g fill="rgb(253,246,227)" text-rendering="geometricPrecision" shape-rendering="geometricPrecision" transform="matrix(1,0,0,1,5,15)" stroke="rgb(253,246,227)">
      <path d="M241.8754 4213.7812 L481.8754 4213.7812 L481.8754 4338.7812 L241.8754 4338.7812 Z" stroke="none" clip-path="url(#clipPath2)"/>
    </g>
    <g stroke-linecap="butt" transform="matrix(1,0,0,1,5,15)" fill="rgb(7,54,66)" text-rendering="geometricPrecision" shape-rendering="geometricPrecision" stroke="rgb(7,54,66)" stroke-miterlimit="1.45">
      <path fill="none" d="M241.8754 4213.7812 L481.8754 4213.7812 L481.8754 4338.7812 L241.8754 4338.7812 Z" clip-path="url(#clipPath2)"/>
    </g>
    <g font-size="16px" stroke-linecap="butt" transform="matrix(1,0,0,1,5,15)" text-rendering="geometricPrecision" font-family="'Liberation Sans'" shape-rendering="geometricPrecision" stroke-miterlimit="1.45">
      <text x="300.0824" xml:space="preserve" y="4281.8281" clip-path="url(#clipPath2)" stroke="none">Birikimli Yedek Al</text>
    </g>
    <g fill="rgb(253,246,227)" text-rendering="geometricPrecision" shape-rendering="geometricPrecision" transform="matrix(1,0,0,1,5,15)" stroke="rgb(253,246,227)">
      <path d="M912.7198 4213.7812 L1152.7198 4213.7812 L1152.7198 4338.7812 L912.7198 4338.7812 Z" stroke="none" clip-path="url(#clipPath2)"/>
    </g>
    <g stroke-linecap="butt" transform="matrix(1,0,0,1,5,15)" fill="rgb(7,54,66)" text-rendering="geometricPrecision" shape-rendering="geometricPrecision" stroke="rgb(7,54,66)" stroke-miterlimit="1.45">
      <path fill="none" d="M912.7198 4213.7812 L1152.7198 4213.7812 L1152.7198 4338.7812 L912.7198 4338.7812 Z" clip-path="url(#clipPath2)"/>
    </g>
    <g font-size="16px" stroke-linecap="butt" transform="matrix(1,0,0,1,5,15)" text-rendering="geometricPrecision" font-family="'Liberation Sans'" shape-rendering="geometricPrecision" stroke-miterlimit="1.45">
      <text x="972.6964" xml:space="preserve" y="4281.8281" clip-path="url(#clipPath2)" stroke="none">Normal Yedek Al</text>
    </g>
    <g fill="rgb(253,246,227)" text-rendering="geometricPrecision" shape-rendering="geometricPrecision" transform="matrix(1,0,0,1,5,15)" stroke="rgb(253,246,227)">
      <path d="M241.8754 4566.75 L481.8754 4566.75 L481.8754 4691.75 L241.8754 4691.75 Z" stroke="none" clip-path="url(#clipPath2)"/>
    </g>
    <g stroke-linecap="butt" transform="matrix(1,0,0,1,5,15)" fill="rgb(7,54,66)" text-rendering="geometricPrecision" shape-rendering="geometricPrecision" stroke="rgb(7,54,66)" stroke-miterlimit="1.45">
      <path fill="none" d="M241.8754 4566.75 L481.8754 4566.75 L481.8754 4691.75 L241.8754 4691.75 Z" clip-path="url(#clipPath2)"/>
    </g>
    <g font-size="16px" stroke-linecap="butt" transform="matrix(1,0,0,1,5,15)" text-rendering="geometricPrecision" font-family="'Liberation Sans'" shape-rendering="geometricPrecision" stroke-miterlimit="1.45">
      <text x="312.516" xml:space="preserve" y="4634.7969" clip-path="url(#clipPath2)" stroke="none">Yedeği TARla</text>
    </g>
    <g fill="rgb(211,54,130)" text-rendering="geometricPrecision" shape-rendering="geometricPrecision" transform="matrix(1,0,0,1,5,15)" stroke="rgb(211,54,130)">
      <path d="M361.8754 4721.75 L511.8754 4796.75 L361.8754 4871.75 L211.8754 4796.75 Z" stroke="none" clip-path="url(#clipPath2)"/>
    </g>
    <g stroke-linecap="butt" transform="matrix(1,0,0,1,5,15)" fill="rgb(7,54,66)" text-rendering="geometricPrecision" shape-rendering="geometricPrecision" stroke="rgb(7,54,66)" stroke-miterlimit="1.45">
      <path fill="none" d="M361.8754 4721.75 L511.8754 4796.75 L361.8754 4871.75 L211.8754 4796.75 Z" clip-path="url(#clipPath2)"/>
    </g>
    <g stroke-linecap="butt" font-size="16px" transform="matrix(1,0,0,1,5,15)" fill="rgb(253,246,227)" text-rendering="geometricPrecision" font-family="'Liberation Sans'" shape-rendering="geometricPrecision" stroke="rgb(253,246,227)" stroke-miterlimit="1.45">
      <text x="276.0668" xml:space="preserve" y="4802.2969" clip-path="url(#clipPath2)" stroke="none">TARlama sorunsuz mu?</text>
    </g>
    <g fill="rgb(211,54,130)" text-rendering="geometricPrecision" shape-rendering="geometricPrecision" transform="matrix(1,0,0,1,5,15)" stroke="rgb(211,54,130)">
      <path d="M361.8754 4923.625 L511.8754 4998.625 L361.8754 5073.625 L211.8754 4998.625 Z" stroke="none" clip-path="url(#clipPath2)"/>
    </g>
    <g stroke-linecap="butt" transform="matrix(1,0,0,1,5,15)" fill="rgb(7,54,66)" text-rendering="geometricPrecision" shape-rendering="geometricPrecision" stroke="rgb(7,54,66)" stroke-miterlimit="1.45">
      <path fill="none" d="M361.8754 4923.625 L511.8754 4998.625 L361.8754 5073.625 L211.8754 4998.625 Z" clip-path="url(#clipPath2)"/>
    </g>
    <g stroke-linecap="butt" font-size="16px" transform="matrix(1,0,0,1,5,15)" fill="rgb(253,246,227)" text-rendering="geometricPrecision" font-family="'Liberation Sans'" shape-rendering="geometricPrecision" stroke="rgb(253,246,227)" stroke-miterlimit="1.45">
      <text x="280.9691" xml:space="preserve" y="5004.1719" clip-path="url(#clipPath2)" stroke="none">Şifreleme Seçilmiş Mi?</text>
    </g>
    <g fill="rgb(220,50,47)" text-rendering="geometricPrecision" shape-rendering="geometricPrecision" transform="matrix(1,0,0,1,5,15)" stroke="rgb(220,50,47)">
      <rect x="10" y="4752.25" clip-path="url(#clipPath2)" width="120" rx="44.5" ry="44.5" height="89" stroke="none"/>
    </g>
    <g stroke-linecap="butt" transform="matrix(1,0,0,1,5,15)" fill="rgb(7,54,66)" text-rendering="geometricPrecision" shape-rendering="geometricPrecision" stroke="rgb(7,54,66)" stroke-miterlimit="1.45">
      <rect x="10" y="4752.25" clip-path="url(#clipPath2)" fill="none" width="120" rx="44.5" ry="44.5" height="89"/>
    </g>
    <g stroke-linecap="butt" font-size="16px" transform="matrix(1,0,0,1,5,15)" fill="rgb(253,246,227)" text-rendering="geometricPrecision" font-family="'Liberation Sans'" shape-rendering="geometricPrecision" stroke="rgb(253,246,227)" stroke-miterlimit="1.45">
      <text x="49.9922" xml:space="preserve" y="4802.2969" clip-path="url(#clipPath2)" stroke="none">Exit 1</text>
    </g>
    <g fill="rgb(253,246,227)" text-rendering="geometricPrecision" shape-rendering="geometricPrecision" transform="matrix(1,0,0,1,5,15)" stroke="rgb(253,246,227)">
      <path d="M241.8754 5125.5 L481.8754 5125.5 L481.8754 5250.5 L241.8754 5250.5 Z" stroke="none" clip-path="url(#clipPath2)"/>
    </g>
    <g stroke-linecap="butt" transform="matrix(1,0,0,1,5,15)" fill="rgb(7,54,66)" text-rendering="geometricPrecision" shape-rendering="geometricPrecision" stroke="rgb(7,54,66)" stroke-miterlimit="1.45">
      <path fill="none" d="M241.8754 5125.5 L481.8754 5125.5 L481.8754 5250.5 L241.8754 5250.5 Z" clip-path="url(#clipPath2)"/>
    </g>
    <g font-size="16px" stroke-linecap="butt" transform="matrix(1,0,0,1,5,15)" text-rendering="geometricPrecision" font-family="'Liberation Sans'" shape-rendering="geometricPrecision" stroke-miterlimit="1.45">
      <text x="312.0668" xml:space="preserve" y="5193.5469" clip-path="url(#clipPath2)" stroke="none">Yedeği Şifrele</text>
    </g>
    <g fill="rgb(211,54,130)" text-rendering="geometricPrecision" shape-rendering="geometricPrecision" transform="matrix(1,0,0,1,5,15)" stroke="rgb(211,54,130)">
      <path d="M361.8754 5280.5 L511.8754 5355.5 L361.8754 5430.5 L211.8754 5355.5 Z" stroke="none" clip-path="url(#clipPath2)"/>
    </g>
    <g stroke-linecap="butt" transform="matrix(1,0,0,1,5,15)" fill="rgb(7,54,66)" text-rendering="geometricPrecision" shape-rendering="geometricPrecision" stroke="rgb(7,54,66)" stroke-miterlimit="1.45">
      <path fill="none" d="M361.8754 5280.5 L511.8754 5355.5 L361.8754 5430.5 L211.8754 5355.5 Z" clip-path="url(#clipPath2)"/>
    </g>
    <g stroke-linecap="butt" font-size="16px" transform="matrix(1,0,0,1,5,15)" fill="rgb(253,246,227)" text-rendering="geometricPrecision" font-family="'Liberation Sans'" shape-rendering="geometricPrecision" stroke="rgb(253,246,227)" stroke-miterlimit="1.45">
      <text x="274.2816" xml:space="preserve" y="5361.0469" clip-path="url(#clipPath2)" stroke="none">Şifreleme Sorunsuz Mu?</text>
    </g>
    <g fill="rgb(253,246,227)" text-rendering="geometricPrecision" shape-rendering="geometricPrecision" transform="matrix(1,0,0,1,5,15)" stroke="rgb(253,246,227)">
      <path d="M241.8754 5482.375 L481.8754 5482.375 L481.8754 5607.375 L241.8754 5607.375 Z" stroke="none" clip-path="url(#clipPath2)"/>
    </g>
    <g stroke-linecap="butt" transform="matrix(1,0,0,1,5,15)" fill="rgb(7,54,66)" text-rendering="geometricPrecision" shape-rendering="geometricPrecision" stroke="rgb(7,54,66)" stroke-miterlimit="1.45">
      <path fill="none" d="M241.8754 5482.375 L481.8754 5482.375 L481.8754 5607.375 L241.8754 5607.375 Z" clip-path="url(#clipPath2)"/>
    </g>
    <g font-size="16px" stroke-linecap="butt" transform="matrix(1,0,0,1,5,15)" text-rendering="geometricPrecision" font-family="'Liberation Sans'" shape-rendering="geometricPrecision" stroke-miterlimit="1.45">
      <text x="271.6098" xml:space="preserve" y="5550.4219" clip-path="url(#clipPath2)" stroke="none">Yedeğin İzinlerini Değiştir</text>
    </g>
    <g fill="rgb(211,54,130)" text-rendering="geometricPrecision" shape-rendering="geometricPrecision" transform="matrix(1,0,0,1,5,15)" stroke="rgb(211,54,130)">
      <path d="M361.8754 5637.375 L511.8754 5712.375 L361.8754 5787.375 L211.8754 5712.375 Z" stroke="none" clip-path="url(#clipPath2)"/>
    </g>
    <g stroke-linecap="butt" transform="matrix(1,0,0,1,5,15)" fill="rgb(7,54,66)" text-rendering="geometricPrecision" shape-rendering="geometricPrecision" stroke="rgb(7,54,66)" stroke-miterlimit="1.45">
      <path fill="none" d="M361.8754 5637.375 L511.8754 5712.375 L361.8754 5787.375 L211.8754 5712.375 Z" clip-path="url(#clipPath2)"/>
    </g>
    <g stroke-linecap="butt" font-size="16px" transform="matrix(1,0,0,1,5,15)" fill="rgb(253,246,227)" text-rendering="geometricPrecision" font-family="'Liberation Sans'" shape-rendering="geometricPrecision" stroke="rgb(253,246,227)" stroke-miterlimit="1.45">
      <text x="311.6176" xml:space="preserve" y="5708.9844" clip-path="url(#clipPath2)" stroke="none">Yedeğin İznini</text>
      <text x="269.8402" xml:space="preserve" y="5726.8594" clip-path="url(#clipPath2)" stroke="none">Değiştirme Sorunsuz Mu?</text>
    </g>
    <g fill="rgb(253,246,227)" text-rendering="geometricPrecision" shape-rendering="geometricPrecision" transform="matrix(1,0,0,1,5,15)" stroke="rgb(253,246,227)">
      <path d="M241.8754 5839.25 L481.8754 5839.25 L481.8754 5964.25 L241.8754 5964.25 Z" stroke="none" clip-path="url(#clipPath2)"/>
    </g>
    <g stroke-linecap="butt" transform="matrix(1,0,0,1,5,15)" fill="rgb(7,54,66)" text-rendering="geometricPrecision" shape-rendering="geometricPrecision" stroke="rgb(7,54,66)" stroke-miterlimit="1.45">
      <path fill="none" d="M241.8754 5839.25 L481.8754 5839.25 L481.8754 5964.25 L241.8754 5964.25 Z" clip-path="url(#clipPath2)"/>
    </g>
    <g font-size="16px" stroke-linecap="butt" transform="matrix(1,0,0,1,5,15)" text-rendering="geometricPrecision" font-family="'Liberation Sans'" shape-rendering="geometricPrecision" stroke-miterlimit="1.45">
      <text x="313.8637" xml:space="preserve" y="5889.4219" clip-path="url(#clipPath2)" stroke="none">Geçici Olarak</text>
      <text x="300.9613" xml:space="preserve" y="5907.2969" clip-path="url(#clipPath2)" stroke="none">Oluşturulan Dizin</text>
      <text x="287.1879" xml:space="preserve" y="5925.1719" clip-path="url(#clipPath2)" stroke="none">ve Dosyaları Temizle</text>
    </g>
    <g fill="rgb(220,50,47)" text-rendering="geometricPrecision" shape-rendering="geometricPrecision" transform="matrix(1,0,0,1,5,15)" stroke="rgb(220,50,47)">
      <rect x="10" y="5667.875" clip-path="url(#clipPath2)" width="120" rx="44.5" ry="44.5" height="89" stroke="none"/>
    </g>
    <g stroke-linecap="butt" transform="matrix(1,0,0,1,5,15)" fill="rgb(7,54,66)" text-rendering="geometricPrecision" shape-rendering="geometricPrecision" stroke="rgb(7,54,66)" stroke-miterlimit="1.45">
      <rect x="10" y="5667.875" clip-path="url(#clipPath2)" fill="none" width="120" rx="44.5" ry="44.5" height="89"/>
    </g>
    <g stroke-linecap="butt" font-size="16px" transform="matrix(1,0,0,1,5,15)" fill="rgb(253,246,227)" text-rendering="geometricPrecision" font-family="'Liberation Sans'" shape-rendering="geometricPrecision" stroke="rgb(253,246,227)" stroke-miterlimit="1.45">
      <text x="49.9922" xml:space="preserve" y="5717.9219" clip-path="url(#clipPath2)" stroke="none">Exit 1</text>
    </g>
    <g fill="rgb(211,54,130)" text-rendering="geometricPrecision" shape-rendering="geometricPrecision" transform="matrix(1,0,0,1,5,15)" stroke="rgb(211,54,130)">
      <path d="M361.8754 5994.25 L511.8754 6069.25 L361.8754 6144.25 L211.8754 6069.25 Z" stroke="none" clip-path="url(#clipPath2)"/>
    </g>
    <g stroke-linecap="butt" transform="matrix(1,0,0,1,5,15)" fill="rgb(7,54,66)" text-rendering="geometricPrecision" shape-rendering="geometricPrecision" stroke="rgb(7,54,66)" stroke-miterlimit="1.45">
      <path fill="none" d="M361.8754 5994.25 L511.8754 6069.25 L361.8754 6144.25 L211.8754 6069.25 Z" clip-path="url(#clipPath2)"/>
    </g>
    <g stroke-linecap="butt" font-size="16px" transform="matrix(1,0,0,1,5,15)" fill="rgb(253,246,227)" text-rendering="geometricPrecision" font-family="'Liberation Sans'" shape-rendering="geometricPrecision" stroke="rgb(253,246,227)" stroke-miterlimit="1.45">
      <text x="299.6449" xml:space="preserve" y="6065.8594" clip-path="url(#clipPath2)" stroke="none">Temizleme İşlemi</text>
      <text x="310.2934" xml:space="preserve" y="6083.7344" clip-path="url(#clipPath2)" stroke="none">Sorunsuz Mu?</text>
    </g>
    <g fill="rgb(220,50,47)" text-rendering="geometricPrecision" shape-rendering="geometricPrecision" transform="matrix(1,0,0,1,5,15)" stroke="rgb(220,50,47)">
      <rect x="593.7508" y="6024.75" clip-path="url(#clipPath2)" width="120" rx="44.5" ry="44.5" height="89" stroke="none"/>
    </g>
    <g stroke-linecap="butt" transform="matrix(1,0,0,1,5,15)" fill="rgb(7,54,66)" text-rendering="geometricPrecision" shape-rendering="geometricPrecision" stroke="rgb(7,54,66)" stroke-miterlimit="1.45">
      <rect x="593.7508" y="6024.75" clip-path="url(#clipPath2)" fill="none" width="120" rx="44.5" ry="44.5" height="89"/>
    </g>
    <g stroke-linecap="butt" font-size="16px" transform="matrix(1,0,0,1,5,15)" fill="rgb(253,246,227)" text-rendering="geometricPrecision" font-family="'Liberation Sans'" shape-rendering="geometricPrecision" stroke="rgb(253,246,227)" stroke-miterlimit="1.45">
      <text x="633.743" xml:space="preserve" y="6074.7969" clip-path="url(#clipPath2)" stroke="none">Exit 1</text>
    </g>
    <g fill="rgb(220,50,47)" text-rendering="geometricPrecision" shape-rendering="geometricPrecision" transform="matrix(1,0,0,1,5,15)" stroke="rgb(220,50,47)">
      <rect x="10" y="5311" clip-path="url(#clipPath2)" width="120" rx="44.5" ry="44.5" height="89" stroke="none"/>
    </g>
    <g stroke-linecap="butt" transform="matrix(1,0,0,1,5,15)" fill="rgb(7,54,66)" text-rendering="geometricPrecision" shape-rendering="geometricPrecision" stroke="rgb(7,54,66)" stroke-miterlimit="1.45">
      <rect x="10" y="5311" clip-path="url(#clipPath2)" fill="none" width="120" rx="44.5" ry="44.5" height="89"/>
    </g>
    <g stroke-linecap="butt" font-size="16px" transform="matrix(1,0,0,1,5,15)" fill="rgb(253,246,227)" text-rendering="geometricPrecision" font-family="'Liberation Sans'" shape-rendering="geometricPrecision" stroke="rgb(253,246,227)" stroke-miterlimit="1.45">
      <text x="49.9922" xml:space="preserve" y="5361.0469" clip-path="url(#clipPath2)" stroke="none">Exit 1</text>
    </g>
    <g fill="rgb(211,54,130)" text-rendering="geometricPrecision" shape-rendering="geometricPrecision" transform="matrix(1,0,0,1,5,15)" stroke="rgb(211,54,130)">
      <path d="M361.8754 6196.125 L511.8754 6271.125 L361.8754 6346.125 L211.8754 6271.125 Z" stroke="none" clip-path="url(#clipPath2)"/>
    </g>
    <g stroke-linecap="butt" transform="matrix(1,0,0,1,5,15)" fill="rgb(7,54,66)" text-rendering="geometricPrecision" shape-rendering="geometricPrecision" stroke="rgb(7,54,66)" stroke-miterlimit="1.45">
      <path fill="none" d="M361.8754 6196.125 L511.8754 6271.125 L361.8754 6346.125 L211.8754 6271.125 Z" clip-path="url(#clipPath2)"/>
    </g>
    <g stroke-linecap="butt" font-size="16px" transform="matrix(1,0,0,1,5,15)" fill="rgb(253,246,227)" text-rendering="geometricPrecision" font-family="'Liberation Sans'" shape-rendering="geometricPrecision" stroke="rgb(253,246,227)" stroke-miterlimit="1.45">
      <text x="280.9691" xml:space="preserve" y="6276.6719" clip-path="url(#clipPath2)" stroke="none">Şifreleme Seçilmiş Mi?</text>
    </g>
    <g fill="rgb(253,246,227)" text-rendering="geometricPrecision" shape-rendering="geometricPrecision" transform="matrix(1,0,0,1,5,15)" stroke="rgb(253,246,227)">
      <path d="M241.8754 6398 L481.8754 6398 L481.8754 6523 L241.8754 6523 Z" stroke="none" clip-path="url(#clipPath2)"/>
    </g>
    <g stroke-linecap="butt" transform="matrix(1,0,0,1,5,15)" fill="rgb(7,54,66)" text-rendering="geometricPrecision" shape-rendering="geometricPrecision" stroke="rgb(7,54,66)" stroke-miterlimit="1.45">
      <path fill="none" d="M241.8754 6398 L481.8754 6398 L481.8754 6523 L241.8754 6523 Z" clip-path="url(#clipPath2)"/>
    </g>
    <g font-size="16px" stroke-linecap="butt" transform="matrix(1,0,0,1,5,15)" text-rendering="geometricPrecision" font-family="'Liberation Sans'" shape-rendering="geometricPrecision" stroke-miterlimit="1.45">
      <text x="272.5199" xml:space="preserve" y="6466.0469" clip-path="url(#clipPath2)" stroke="none">Geçici TAR Dosyasını Sil</text>
    </g>
    <g fill="rgb(211,54,130)" text-rendering="geometricPrecision" shape-rendering="geometricPrecision" transform="matrix(1,0,0,1,5,15)" stroke="rgb(211,54,130)">
      <path d="M361.8754 6553 L511.8754 6628 L361.8754 6703 L211.8754 6628 Z" stroke="none" clip-path="url(#clipPath2)"/>
    </g>
    <g stroke-linecap="butt" transform="matrix(1,0,0,1,5,15)" fill="rgb(7,54,66)" text-rendering="geometricPrecision" shape-rendering="geometricPrecision" stroke="rgb(7,54,66)" stroke-miterlimit="1.45">
      <path fill="none" d="M361.8754 6553 L511.8754 6628 L361.8754 6703 L211.8754 6628 Z" clip-path="url(#clipPath2)"/>
    </g>
    <g stroke-linecap="butt" font-size="16px" transform="matrix(1,0,0,1,5,15)" fill="rgb(253,246,227)" text-rendering="geometricPrecision" font-family="'Liberation Sans'" shape-rendering="geometricPrecision" stroke="rgb(253,246,227)" stroke-miterlimit="1.45">
      <text x="303.6332" xml:space="preserve" y="6615.6719" clip-path="url(#clipPath2)" stroke="none">TAR Dosyasının</text>
      <text x="319.641" xml:space="preserve" y="6633.5469" clip-path="url(#clipPath2)" stroke="none">Kaldırılması</text>
      <text x="310.2934" xml:space="preserve" y="6651.4219" clip-path="url(#clipPath2)" stroke="none">Sorunsuz Mu?</text>
    </g>
    <g fill="rgb(42,161,152)" text-rendering="geometricPrecision" shape-rendering="geometricPrecision" transform="matrix(1,0,0,1,5,15)" stroke="rgb(42,161,152)">
      <rect x="296.8754" y="6754.875" clip-path="url(#clipPath2)" width="130" rx="44.5" ry="44.5" height="89" stroke="none"/>
    </g>
    <g stroke-linecap="butt" transform="matrix(1,0,0,1,5,15)" fill="rgb(7,54,66)" text-rendering="geometricPrecision" shape-rendering="geometricPrecision" stroke="rgb(7,54,66)" stroke-miterlimit="1.45">
      <rect x="296.8754" y="6754.875" clip-path="url(#clipPath2)" fill="none" width="130" rx="44.5" ry="44.5" height="89"/>
    </g>
    <g stroke-linecap="butt" font-size="16px" transform="matrix(1,0,0,1,5,15)" fill="rgb(253,246,227)" text-rendering="geometricPrecision" font-family="'Liberation Sans'" shape-rendering="geometricPrecision" stroke="rgb(253,246,227)" stroke-miterlimit="1.45">
      <text x="305.3949" xml:space="preserve" y="6804.9219" clip-path="url(#clipPath2)" stroke="none">Betiği Sonlandır</text>
    </g>
    <g fill="rgb(220,50,47)" text-rendering="geometricPrecision" shape-rendering="geometricPrecision" transform="matrix(1,0,0,1,5,15)" stroke="rgb(220,50,47)">
      <rect x="10" y="6583.5" clip-path="url(#clipPath2)" width="120" rx="44.5" ry="44.5" height="89" stroke="none"/>
    </g>
    <g stroke-linecap="butt" transform="matrix(1,0,0,1,5,15)" fill="rgb(7,54,66)" text-rendering="geometricPrecision" shape-rendering="geometricPrecision" stroke="rgb(7,54,66)" stroke-miterlimit="1.45">
      <rect x="10" y="6583.5" clip-path="url(#clipPath2)" fill="none" width="120" rx="44.5" ry="44.5" height="89"/>
    </g>
    <g stroke-linecap="butt" font-size="16px" transform="matrix(1,0,0,1,5,15)" fill="rgb(253,246,227)" text-rendering="geometricPrecision" font-family="'Liberation Sans'" shape-rendering="geometricPrecision" stroke="rgb(253,246,227)" stroke-miterlimit="1.45">
      <text x="49.9922" xml:space="preserve" y="6633.5469" clip-path="url(#clipPath2)" stroke="none">Exit 1</text>
    </g>
    <g fill="rgb(253,246,227)" text-rendering="geometricPrecision" shape-rendering="geometricPrecision" transform="matrix(1,0,0,1,5,15)" stroke="rgb(253,246,227)">
      <path d="M241.8754 824.9375 L481.8754 824.9375 L481.8754 949.9375 L241.8754 949.9375 Z" stroke="none" clip-path="url(#clipPath2)"/>
    </g>
    <g stroke-linecap="butt" transform="matrix(1,0,0,1,5,15)" fill="rgb(7,54,66)" text-rendering="geometricPrecision" shape-rendering="geometricPrecision" stroke="rgb(7,54,66)" stroke-miterlimit="1.45">
      <path fill="none" d="M241.8754 824.9375 L481.8754 824.9375 L481.8754 949.9375 L241.8754 949.9375 Z" clip-path="url(#clipPath2)"/>
      <text x="295.6137" font-size="16px" y="875.1094" clip-path="url(#clipPath2)" font-family="'Liberation Sans'" stroke="none" xml:space="preserve">Yedek Alınacak ve</text>
      <text x="271.1684" font-size="16px" y="892.9844" clip-path="url(#clipPath2)" font-family="'Liberation Sans'" stroke="none" xml:space="preserve">Hedef Dizinin Mecut Olup</text>
      <text x="292.9496" font-size="16px" y="910.8594" clip-path="url(#clipPath2)" font-family="'Liberation Sans'" stroke="none" xml:space="preserve">Olmadığını Denetle</text>
    </g>
    <g fill="rgb(211,54,130)" text-rendering="geometricPrecision" shape-rendering="geometricPrecision" transform="matrix(1,0,0,1,5,15)" stroke="rgb(211,54,130)">
      <path d="M361.8754 979.9375 L511.8754 1054.9375 L361.8754 1129.9375 L211.8754 1054.9375 Z" stroke="none" clip-path="url(#clipPath2)"/>
    </g>
    <g stroke-linecap="butt" transform="matrix(1,0,0,1,5,15)" fill="rgb(7,54,66)" text-rendering="geometricPrecision" shape-rendering="geometricPrecision" stroke="rgb(7,54,66)" stroke-miterlimit="1.45">
      <path fill="none" d="M361.8754 979.9375 L511.8754 1054.9375 L361.8754 1129.9375 L211.8754 1054.9375 Z" clip-path="url(#clipPath2)"/>
    </g>
    <g stroke-linecap="butt" font-size="16px" transform="matrix(1,0,0,1,5,15)" fill="rgb(253,246,227)" text-rendering="geometricPrecision" font-family="'Liberation Sans'" shape-rendering="geometricPrecision" stroke="rgb(253,246,227)" stroke-miterlimit="1.45">
      <text x="289.4106" xml:space="preserve" y="1060.4844" clip-path="url(#clipPath2)" stroke="none">Dizinler Mevcut Mu?</text>
    </g>
    <g fill="rgb(253,246,227)" text-rendering="geometricPrecision" shape-rendering="geometricPrecision" transform="matrix(1,0,0,1,5,15)" stroke="rgb(253,246,227)">
      <path d="M241.8754 1357.9062 L481.8754 1357.9062 L481.8754 1482.9062 L241.8754 1482.9062 Z" stroke="none" clip-path="url(#clipPath2)"/>
    </g>
    <g stroke-linecap="butt" transform="matrix(1,0,0,1,5,15)" fill="rgb(7,54,66)" text-rendering="geometricPrecision" shape-rendering="geometricPrecision" stroke="rgb(7,54,66)" stroke-miterlimit="1.45">
      <path fill="none" d="M241.8754 1357.9062 L481.8754 1357.9062 L481.8754 1482.9062 L241.8754 1482.9062 Z" clip-path="url(#clipPath2)"/>
      <text x="295.6137" font-size="16px" y="1417.0156" clip-path="url(#clipPath2)" font-family="'Liberation Sans'" stroke="none" xml:space="preserve">Yedek Alınacak ve</text>
      <text x="290.7387" font-size="16px" y="1434.8906" clip-path="url(#clipPath2)" font-family="'Liberation Sans'" stroke="none" xml:space="preserve">Hedef Dizini Oluştur</text>
    </g>
    <g fill="rgb(220,50,47)" text-rendering="geometricPrecision" shape-rendering="geometricPrecision" transform="matrix(1,0,0,1,5,15)" stroke="rgb(220,50,47)">
      <rect x="593.7508" y="1208.4062" clip-path="url(#clipPath2)" width="120" rx="44.5" ry="44.5" height="89" stroke="none"/>
    </g>
    <g stroke-linecap="butt" transform="matrix(1,0,0,1,5,15)" fill="rgb(7,54,66)" text-rendering="geometricPrecision" shape-rendering="geometricPrecision" stroke="rgb(7,54,66)" stroke-miterlimit="1.45">
      <rect x="593.7508" y="1208.4062" clip-path="url(#clipPath2)" fill="none" width="120" rx="44.5" ry="44.5" height="89"/>
    </g>
    <g stroke-linecap="butt" font-size="16px" transform="matrix(1,0,0,1,5,15)" fill="rgb(253,246,227)" text-rendering="geometricPrecision" font-family="'Liberation Sans'" shape-rendering="geometricPrecision" stroke="rgb(253,246,227)" stroke-miterlimit="1.45">
      <text x="633.743" xml:space="preserve" y="1258.4531" clip-path="url(#clipPath2)" stroke="none">Exit 1</text>
    </g>
    <g fill="rgb(253,246,227)" text-rendering="geometricPrecision" shape-rendering="geometricPrecision" transform="matrix(1,0,0,1,5,15)" stroke="rgb(253,246,227)">
      <path d="M241.8754 669.9375 L481.8754 669.9375 L481.8754 794.9375 L241.8754 794.9375 Z" stroke="none" clip-path="url(#clipPath2)"/>
    </g>
    <g stroke-linecap="butt" transform="matrix(1,0,0,1,5,15)" fill="rgb(7,54,66)" text-rendering="geometricPrecision" shape-rendering="geometricPrecision" stroke="rgb(7,54,66)" stroke-miterlimit="1.45">
      <path fill="none" d="M241.8754 669.9375 L481.8754 669.9375 L481.8754 794.9375 L241.8754 794.9375 Z" clip-path="url(#clipPath2)"/>
      <text x="262.2856" font-size="16px" y="737.9844" clip-path="url(#clipPath2)" font-family="'Liberation Sans'" stroke="none" xml:space="preserve">Temel Değişkenleri Tanımla</text>
    </g>
    <g fill="rgb(211,54,130)" text-rendering="geometricPrecision" shape-rendering="geometricPrecision" transform="matrix(1,0,0,1,5,15)" stroke="rgb(211,54,130)">
      <path d="M361.8754 471.9688 L511.8754 546.9688 L361.8754 621.9688 L211.8754 546.9688 Z" stroke="none" clip-path="url(#clipPath2)"/>
    </g>
    <g stroke-linecap="butt" transform="matrix(1,0,0,1,5,15)" fill="rgb(7,54,66)" text-rendering="geometricPrecision" shape-rendering="geometricPrecision" stroke="rgb(7,54,66)" stroke-miterlimit="1.45">
      <path fill="none" d="M361.8754 471.9688 L511.8754 546.9688 L361.8754 621.9688 L211.8754 546.9688 Z" clip-path="url(#clipPath2)"/>
    </g>
    <g stroke-linecap="butt" font-size="16px" transform="matrix(1,0,0,1,5,15)" fill="rgb(253,246,227)" text-rendering="geometricPrecision" font-family="'Liberation Sans'" shape-rendering="geometricPrecision" stroke="rgb(253,246,227)" stroke-miterlimit="1.45">
      <text x="302.2973" xml:space="preserve" y="552.5156" clip-path="url(#clipPath2)" stroke="none">Tanımlansın Mı?</text>
    </g>
    <g fill="rgb(220,50,47)" text-rendering="geometricPrecision" shape-rendering="geometricPrecision" transform="matrix(1,0,0,1,5,15)" stroke="rgb(220,50,47)">
      <rect x="10" y="502.4688" clip-path="url(#clipPath2)" width="120" rx="44.5" ry="44.5" height="89" stroke="none"/>
    </g>
    <g stroke-linecap="butt" transform="matrix(1,0,0,1,5,15)" fill="rgb(7,54,66)" text-rendering="geometricPrecision" shape-rendering="geometricPrecision" stroke="rgb(7,54,66)" stroke-miterlimit="1.45">
      <rect x="10" y="502.4688" clip-path="url(#clipPath2)" fill="none" width="120" rx="44.5" ry="44.5" height="89"/>
    </g>
    <g stroke-linecap="butt" font-size="16px" transform="matrix(1,0,0,1,5,15)" fill="rgb(253,246,227)" text-rendering="geometricPrecision" font-family="'Liberation Sans'" shape-rendering="geometricPrecision" stroke="rgb(253,246,227)" stroke-miterlimit="1.45">
      <text x="49.9922" xml:space="preserve" y="552.5156" clip-path="url(#clipPath2)" stroke="none">Exit 1</text>
    </g>
    <g fill="rgb(211,54,130)" text-rendering="geometricPrecision" shape-rendering="geometricPrecision" transform="matrix(1,0,0,1,5,15)" stroke="rgb(211,54,130)">
      <path d="M361.8754 1177.9062 L511.8754 1252.9062 L361.8754 1327.9062 L211.8754 1252.9062 Z" stroke="none" clip-path="url(#clipPath2)"/>
    </g>
    <g stroke-linecap="butt" transform="matrix(1,0,0,1,5,15)" fill="rgb(7,54,66)" text-rendering="geometricPrecision" shape-rendering="geometricPrecision" stroke="rgb(7,54,66)" stroke-miterlimit="1.45">
      <path fill="none" d="M361.8754 1177.9062 L511.8754 1252.9062 L361.8754 1327.9062 L211.8754 1252.9062 Z" clip-path="url(#clipPath2)"/>
    </g>
    <g stroke-linecap="butt" font-size="16px" transform="matrix(1,0,0,1,5,15)" fill="rgb(253,246,227)" text-rendering="geometricPrecision" font-family="'Liberation Sans'" shape-rendering="geometricPrecision" stroke="rgb(253,246,227)" stroke-miterlimit="1.45">
      <text x="299.1801" xml:space="preserve" y="1258.4531" clip-path="url(#clipPath2)" stroke="none">Oluşturulsun Mu?</text>
    </g>
    <g fill="rgb(253,246,227)" text-rendering="geometricPrecision" shape-rendering="geometricPrecision" transform="matrix(1,0,0,1,5,15)" stroke="rgb(253,246,227)">
      <path d="M241.8754 3495.3438 L481.8754 3495.3438 L481.8754 3620.3438 L241.8754 3620.3438 Z" stroke="none" clip-path="url(#clipPath2)"/>
    </g>
    <g stroke-linecap="butt" transform="matrix(1,0,0,1,5,15)" fill="rgb(7,54,66)" text-rendering="geometricPrecision" shape-rendering="geometricPrecision" stroke="rgb(7,54,66)" stroke-miterlimit="1.45">
      <path fill="none" d="M241.8754 3495.3438 L481.8754 3495.3438 L481.8754 3620.3438 L241.8754 3620.3438 Z" clip-path="url(#clipPath2)"/>
    </g>
    <g font-size="16px" stroke-linecap="butt" transform="matrix(1,0,0,1,5,15)" text-rendering="geometricPrecision" font-family="'Liberation Sans'" shape-rendering="geometricPrecision" stroke-miterlimit="1.45">
      <text x="281.8363" xml:space="preserve" y="3545.5156" clip-path="url(#clipPath2)" stroke="none">Son Yedeği Çıkartmak</text>
      <text x="271.1684" xml:space="preserve" y="3563.3906" clip-path="url(#clipPath2)" stroke="none">İçin Gerekli İzinlere Sahip</text>
      <text x="273.8285" xml:space="preserve" y="3581.2656" clip-path="url(#clipPath2)" stroke="none">Olup Olmadığını Denetle</text>
    </g>
    <g fill="rgb(211,54,130)" text-rendering="geometricPrecision" shape-rendering="geometricPrecision" transform="matrix(1,0,0,1,5,15)" stroke="rgb(211,54,130)">
      <path d="M361.8754 3650.3438 L511.8754 3725.3438 L361.8754 3800.3438 L211.8754 3725.3438 Z" stroke="none" clip-path="url(#clipPath2)"/>
    </g>
    <g stroke-linecap="butt" transform="matrix(1,0,0,1,5,15)" fill="rgb(7,54,66)" text-rendering="geometricPrecision" shape-rendering="geometricPrecision" stroke="rgb(7,54,66)" stroke-miterlimit="1.45">
      <path fill="none" d="M361.8754 3650.3438 L511.8754 3725.3438 L361.8754 3800.3438 L211.8754 3725.3438 Z" clip-path="url(#clipPath2)"/>
    </g>
    <g stroke-linecap="butt" font-size="16px" transform="matrix(1,0,0,1,5,15)" fill="rgb(253,246,227)" text-rendering="geometricPrecision" font-family="'Liberation Sans'" shape-rendering="geometricPrecision" stroke="rgb(253,246,227)" stroke-miterlimit="1.45">
      <text x="270.727" xml:space="preserve" y="3730.8906" clip-path="url(#clipPath2)" stroke="none">Gerekli İzinlere Sahip Mi?</text>
    </g>
    <g fill="rgb(211,54,130)" text-rendering="geometricPrecision" shape-rendering="geometricPrecision" transform="matrix(1,0,0,1,5,15)" stroke="rgb(211,54,130)">
      <path d="M803.7508 3835.8125 L953.7508 3910.8125 L803.7508 3985.8125 L653.7508 3910.8125 Z" stroke="none" clip-path="url(#clipPath2)"/>
    </g>
    <g stroke-linecap="butt" transform="matrix(1,0,0,1,5,15)" fill="rgb(7,54,66)" text-rendering="geometricPrecision" shape-rendering="geometricPrecision" stroke="rgb(7,54,66)" stroke-miterlimit="1.45">
      <path fill="none" d="M803.7508 3835.8125 L953.7508 3910.8125 L803.7508 3985.8125 L653.7508 3910.8125 Z" clip-path="url(#clipPath2)"/>
    </g>
    <g stroke-linecap="butt" font-size="16px" transform="matrix(1,0,0,1,5,15)" fill="rgb(253,246,227)" text-rendering="geometricPrecision" font-family="'Liberation Sans'" shape-rendering="geometricPrecision" stroke="rgb(253,246,227)" stroke-miterlimit="1.45">
      <text x="710.825" xml:space="preserve" y="3916.3594" clip-path="url(#clipPath2)" stroke="none">Normal Yedek Alınsın Mı?</text>
    </g>
    <g fill="rgb(220,50,47)" text-rendering="geometricPrecision" shape-rendering="geometricPrecision" transform="matrix(1,0,0,1,5,15)" stroke="rgb(220,50,47)">
      <rect x="743.7508" y="4046.3125" clip-path="url(#clipPath2)" width="120" rx="44.5" ry="44.5" height="89" stroke="none"/>
    </g>
    <g stroke-linecap="butt" transform="matrix(1,0,0,1,5,15)" fill="rgb(7,54,66)" text-rendering="geometricPrecision" shape-rendering="geometricPrecision" stroke="rgb(7,54,66)" stroke-miterlimit="1.45">
      <rect x="743.7508" y="4046.3125" clip-path="url(#clipPath2)" fill="none" width="120" rx="44.5" ry="44.5" height="89"/>
    </g>
    <g stroke-linecap="butt" font-size="16px" transform="matrix(1,0,0,1,5,15)" fill="rgb(253,246,227)" text-rendering="geometricPrecision" font-family="'Liberation Sans'" shape-rendering="geometricPrecision" stroke="rgb(253,246,227)" stroke-miterlimit="1.45">
      <text x="783.743" xml:space="preserve" y="4096.3594" clip-path="url(#clipPath2)" stroke="none">Exit 1</text>
    </g>
    <g fill="rgb(211,54,130)" text-rendering="geometricPrecision" shape-rendering="geometricPrecision" transform="matrix(1,0,0,1,5,15)" stroke="rgb(211,54,130)">
      <path d="M361.8754 4015.8125 L511.8754 4090.8125 L361.8754 4165.8125 L211.8754 4090.8125 Z" stroke="none" clip-path="url(#clipPath2)"/>
    </g>
    <g stroke-linecap="butt" transform="matrix(1,0,0,1,5,15)" fill="rgb(7,54,66)" text-rendering="geometricPrecision" shape-rendering="geometricPrecision" stroke="rgb(7,54,66)" stroke-miterlimit="1.45">
      <path fill="none" d="M361.8754 4015.8125 L511.8754 4090.8125 L361.8754 4165.8125 L211.8754 4090.8125 Z" clip-path="url(#clipPath2)"/>
    </g>
    <g stroke-linecap="butt" font-size="16px" transform="matrix(1,0,0,1,5,15)" fill="rgb(253,246,227)" text-rendering="geometricPrecision" font-family="'Liberation Sans'" shape-rendering="geometricPrecision" stroke="rgb(253,246,227)" stroke-miterlimit="1.45">
      <text x="286.7152" xml:space="preserve" y="4087.4219" clip-path="url(#clipPath2)" stroke="none">Son Yedek Sorunsuz</text>
      <text x="314.309" xml:space="preserve" y="4105.2969" clip-path="url(#clipPath2)" stroke="none">Çıkartıldı Mı?</text>
    </g>
    <g fill="rgb(220,50,47)" text-rendering="geometricPrecision" shape-rendering="geometricPrecision" transform="matrix(1,0,0,1,5,15)" stroke="rgb(220,50,47)">
      <rect x="593.7508" y="4046.3125" clip-path="url(#clipPath2)" width="120" rx="44.5" ry="44.5" height="89" stroke="none"/>
    </g>
    <g stroke-linecap="butt" transform="matrix(1,0,0,1,5,15)" fill="rgb(7,54,66)" text-rendering="geometricPrecision" shape-rendering="geometricPrecision" stroke="rgb(7,54,66)" stroke-miterlimit="1.45">
      <rect x="593.7508" y="4046.3125" clip-path="url(#clipPath2)" fill="none" width="120" rx="44.5" ry="44.5" height="89"/>
    </g>
    <g stroke-linecap="butt" font-size="16px" transform="matrix(1,0,0,1,5,15)" fill="rgb(253,246,227)" text-rendering="geometricPrecision" font-family="'Liberation Sans'" shape-rendering="geometricPrecision" stroke="rgb(253,246,227)" stroke-miterlimit="1.45">
      <text x="633.743" xml:space="preserve" y="4096.3594" clip-path="url(#clipPath2)" stroke="none">Exit 1</text>
    </g>
    <g fill="rgb(211,54,130)" text-rendering="geometricPrecision" shape-rendering="geometricPrecision" transform="matrix(1,0,0,1,5,15)" stroke="rgb(211,54,130)">
      <path d="M361.8754 4368.7812 L511.8754 4443.7812 L361.8754 4518.7812 L211.8754 4443.7812 Z" stroke="none" clip-path="url(#clipPath2)"/>
    </g>
    <g stroke-linecap="butt" transform="matrix(1,0,0,1,5,15)" fill="rgb(7,54,66)" text-rendering="geometricPrecision" shape-rendering="geometricPrecision" stroke="rgb(7,54,66)" stroke-miterlimit="1.45">
      <path fill="none" d="M361.8754 4368.7812 L511.8754 4443.7812 L361.8754 4518.7812 L211.8754 4443.7812 Z" clip-path="url(#clipPath2)"/>
    </g>
    <g stroke-linecap="butt" font-size="16px" transform="matrix(1,0,0,1,5,15)" fill="rgb(253,246,227)" text-rendering="geometricPrecision" font-family="'Liberation Sans'" shape-rendering="geometricPrecision" stroke="rgb(253,246,227)" stroke-miterlimit="1.45">
      <text x="288.9691" xml:space="preserve" y="4440.3906" clip-path="url(#clipPath2)" stroke="none">Birikimli Yedek Alma</text>
      <text x="265.8363" xml:space="preserve" y="4458.2656" clip-path="url(#clipPath2)" stroke="none">Sorunsuz Tamamlandı Mı?</text>
    </g>
    <g fill="rgb(220,50,47)" text-rendering="geometricPrecision" shape-rendering="geometricPrecision" transform="matrix(1,0,0,1,5,15)" stroke="rgb(220,50,47)">
      <rect x="593.7508" y="4399.2812" clip-path="url(#clipPath2)" width="120" rx="44.5" ry="44.5" height="89" stroke="none"/>
    </g>
    <g stroke-linecap="butt" transform="matrix(1,0,0,1,5,15)" fill="rgb(7,54,66)" text-rendering="geometricPrecision" shape-rendering="geometricPrecision" stroke="rgb(7,54,66)" stroke-miterlimit="1.45">
      <rect x="593.7508" y="4399.2812" clip-path="url(#clipPath2)" fill="none" width="120" rx="44.5" ry="44.5" height="89"/>
    </g>
    <g stroke-linecap="butt" font-size="16px" transform="matrix(1,0,0,1,5,15)" fill="rgb(253,246,227)" text-rendering="geometricPrecision" font-family="'Liberation Sans'" shape-rendering="geometricPrecision" stroke="rgb(253,246,227)" stroke-miterlimit="1.45">
      <text x="633.743" xml:space="preserve" y="4449.3281" clip-path="url(#clipPath2)" stroke="none">Exit 1</text>
    </g>
    <g stroke-linecap="butt" transform="matrix(1,0,0,1,5,15)" fill="rgb(7,54,66)" text-rendering="geometricPrecision" shape-rendering="geometricPrecision" stroke="rgb(7,54,66)" stroke-miterlimit="1.45">
      <path fill="none" d="M361.8754 89 L361.8754 110.9707" clip-path="url(#clipPath2)"/>
    </g>
    <g stroke-linecap="butt" transform="matrix(1,0,0,1,5,15)" fill="rgb(7,54,66)" text-rendering="geometricPrecision" shape-rendering="geometricPrecision" stroke="rgb(7,54,66)" stroke-miterlimit="1.45">
      <path d="M361.8754 118.9707 L366.8754 106.9707 L361.8754 109.9707 L356.8754 106.9707 Z" stroke="none" clip-path="url(#clipPath2)"/>
      <path fill="none" d="M361.8754 244 L361.8754 266" clip-path="url(#clipPath2)"/>
      <path d="M361.8754 274 L366.8754 262 L361.8754 265 L356.8754 262 Z" clip-path="url(#clipPath2)" stroke="none"/>
      <path fill="none" d="M361.8754 1637.9062 L361.8754 1659.9062" clip-path="url(#clipPath2)"/>
      <path d="M361.8754 1667.9062 L366.8754 1655.9062 L361.8754 1658.9062 L356.8754 1655.9062 Z" clip-path="url(#clipPath2)" stroke="none"/>
      <path fill="none" d="M361.8754 1817.9062 L361.8754 1861.7559" clip-path="url(#clipPath2)"/>
      <path d="M361.8754 1869.7559 L366.8754 1857.7559 L361.8754 1860.7559 L356.8754 1857.7559 Z" clip-path="url(#clipPath2)" stroke="none"/>
      <rect x="343.8676" y="1828.0312" clip-path="url(#clipPath2)" fill="white" width="36.0156" height="21.875" stroke="none"/>
      <text x="345.8676" font-size="16px" y="1844.5156" clip-path="url(#clipPath2)" font-family="'Liberation Sans'" stroke="none" xml:space="preserve">Evet</text>
      <path fill="none" d="M361.8754 1994.7812 L361.8754 2016.7812" clip-path="url(#clipPath2)"/>
      <path d="M361.8754 2024.7812 L366.8754 2012.7812 L361.8754 2015.7812 L356.8754 2012.7812 Z" clip-path="url(#clipPath2)" stroke="none"/>
      <path fill="none" d="M211.8354 2099.7812 L138 2099.7812" clip-path="url(#clipPath2)"/>
      <path d="M130 2099.7812 L142 2104.7812 L139 2099.7812 L142 2094.7812 Z" clip-path="url(#clipPath2)" stroke="none"/>
      <rect x="159.5238" y="2088.8438" clip-path="url(#clipPath2)" fill="white" width="42.2266" height="21.875" stroke="none"/>
      <text x="161.5238" font-size="16px" y="2105.3281" clip-path="url(#clipPath2)" font-family="'Liberation Sans'" stroke="none" xml:space="preserve">Hayır</text>
      <path fill="none" d="M361.8754 2174.7812 L361.8754 2214.7031" clip-path="url(#clipPath2)" stroke="black"/>
      <path fill="black" d="M361.8754 2222.7031 L366.8754 2210.7031 L361.8754 2213.7031 L356.8754 2210.7031 Z" clip-path="url(#clipPath2)" stroke="none"/>
      <text x="365.8754" y="2198.0449" clip-path="url(#clipPath2)" fill="black" font-family="sans-serif" stroke="none" xml:space="preserve">Evet</text>
      <path fill="none" d="M361.8754 2347.75 L361.8754 2369.75" clip-path="url(#clipPath2)"/>
      <path d="M361.8754 2377.75 L366.8754 2365.75 L361.8754 2368.75 L356.8754 2365.75 Z" clip-path="url(#clipPath2)" stroke="none"/>
      <path fill="none" d="M361.8754 2527.75 L361.8754 2571.5996" clip-path="url(#clipPath2)"/>
      <path d="M361.8754 2579.5996 L366.8754 2567.5996 L361.8754 2570.5996 L356.8754 2567.5996 Z" clip-path="url(#clipPath2)" stroke="none"/>
      <rect x="343.8676" y="2537.875" clip-path="url(#clipPath2)" fill="white" width="36.0156" height="21.875" stroke="none"/>
      <text x="345.8676" font-size="16px" y="2554.3594" clip-path="url(#clipPath2)" font-family="'Liberation Sans'" stroke="none" xml:space="preserve">Evet</text>
      <path fill="none" d="M361.8754 2704.625 L361.8754 2730.625" clip-path="url(#clipPath2)"/>
      <path d="M361.8754 2738.625 L366.8754 2726.625 L361.8754 2729.625 L356.8754 2726.625 Z" clip-path="url(#clipPath2)" stroke="none"/>
      <rect x="359.8754" y="2714.75" clip-path="url(#clipPath2)" fill="white" width="4" height="4" stroke="none"/>
      <path fill="none" d="M361.8754 2888.625 L361.8754 2932.4746" clip-path="url(#clipPath2)"/>
      <path d="M361.8754 2940.4746 L366.8754 2928.4746 L361.8754 2931.4746 L356.8754 2928.4746 Z" clip-path="url(#clipPath2)" stroke="none"/>
      <rect x="343.8676" y="2898.75" clip-path="url(#clipPath2)" fill="white" width="36.0156" height="21.875" stroke="none"/>
      <text x="345.8676" font-size="16px" y="2915.2344" clip-path="url(#clipPath2)" font-family="'Liberation Sans'" stroke="none" xml:space="preserve">Evet</text>
      <path fill="none" d="M361.8754 3065.5 L361.8754 3087.5" clip-path="url(#clipPath2)"/>
      <path d="M361.8754 3095.5 L366.8754 3083.5 L361.8754 3086.5 L356.8754 3083.5 Z" clip-path="url(#clipPath2)" stroke="none"/>
      <path fill="none" d="M361.8754 3245.5 L361.8754 3289.375" clip-path="url(#clipPath2)"/>
      <path d="M361.8754 3297.375 L366.8754 3285.375 L361.8754 3288.375 L356.8754 3285.375 Z" clip-path="url(#clipPath2)" stroke="none"/>
      <rect x="340.7621" y="3255.625" clip-path="url(#clipPath2)" fill="white" width="42.2266" height="21.875" stroke="none"/>
      <text x="342.7621" font-size="16px" y="3272.1094" clip-path="url(#clipPath2)" font-family="'Liberation Sans'" stroke="none" xml:space="preserve">Hayır</text>
      <path fill="none" d="M511.8754 2452.75 L585.7108 2452.75" clip-path="url(#clipPath2)"/>
      <path d="M593.7108 2452.75 L581.7108 2447.75 L584.7108 2452.75 L581.7108 2457.75 Z" clip-path="url(#clipPath2)" stroke="none"/>
      <rect x="522.0004" y="2441.8125" clip-path="url(#clipPath2)" fill="white" width="42.2266" height="21.875" stroke="none"/>
      <text x="524.0004" font-size="16px" y="2458.2969" clip-path="url(#clipPath2)" font-family="'Liberation Sans'" stroke="none" xml:space="preserve">Hayır</text>
      <path fill="none" d="M511.8754 2813.625 L1022.7198 2813.625 L1027.0948 2814.25 L1030.2198 2816.125 L1032.0948 2819.25 L1032.7198 2823.625 L1032.7198 2950.4646" clip-path="url(#clipPath2)"/>
      <path d="M1032.7198 2958.4646 L1037.7198 2946.4646 L1032.7198 2949.4646 L1027.7198 2946.4646 Z" clip-path="url(#clipPath2)" stroke="none"/>
      <rect x="522.0004" y="2802.6875" clip-path="url(#clipPath2)" fill="white" width="42.2266" height="21.875" stroke="none"/>
      <text x="524.0004" font-size="16px" y="2819.1719" clip-path="url(#clipPath2)" font-family="'Liberation Sans'" stroke="none" xml:space="preserve">Hayır</text>
      <path fill="none" d="M211.8354 3170.5 L138 3170.5" clip-path="url(#clipPath2)"/>
      <path d="M130 3170.5 L142 3175.5 L139 3170.5 L142 3165.5 Z" clip-path="url(#clipPath2)" stroke="none"/>
      <rect x="165.7348" y="3159.5625" clip-path="url(#clipPath2)" fill="white" width="36.0156" height="21.875" stroke="none"/>
      <text x="167.7348" font-size="16px" y="3176.0469" clip-path="url(#clipPath2)" font-family="'Liberation Sans'" stroke="none" xml:space="preserve">Evet</text>
      <path fill="none" d="M511.8754 3372.375 L1022.7198 3372.375 L1027.0948 3373 L1030.2198 3374.875 L1032.0948 3378 L1032.7198 3382.375 L1032.7198 4205.7554" clip-path="url(#clipPath2)"/>
      <path d="M1032.7198 4213.7554 L1037.7198 4201.7554 L1032.7198 4204.7554 L1027.7198 4201.7554 Z" clip-path="url(#clipPath2)" stroke="none"/>
      <rect x="522.0004" y="3361.4375" clip-path="url(#clipPath2)" fill="white" width="42.2266" height="21.875" stroke="none"/>
      <text x="524.0004" font-size="16px" y="3377.9219" clip-path="url(#clipPath2)" font-family="'Liberation Sans'" stroke="none" xml:space="preserve">Hayır</text>
      <path fill="none" d="M1032.7198 3047.5 L1032.7198 4205.7456" clip-path="url(#clipPath2)" stroke="black"/>
      <path fill="black" d="M1032.7198 4213.7456 L1037.7198 4201.7456 L1032.7198 4204.7456 L1027.7198 4201.7456 Z" clip-path="url(#clipPath2)" stroke="none"/>
      <path fill="none" d="M1032.7198 4338.7812 L1032.7198 4619.25 L1032.0948 4623.625 L1030.2198 4626.75 L1027.0948 4628.625 L1022.7198 4629.25 L489.8754 4629.25" clip-path="url(#clipPath2)"/>
      <path d="M481.8754 4629.25 L493.8754 4634.25 L490.8754 4629.25 L493.8754 4624.25 Z" clip-path="url(#clipPath2)" stroke="none"/>
      <path fill="none" d="M361.8754 4691.75 L361.8754 4713.75" clip-path="url(#clipPath2)"/>
      <path d="M361.8754 4721.75 L366.8754 4709.75 L361.8754 4712.75 L356.8754 4709.75 Z" clip-path="url(#clipPath2)" stroke="none"/>
      <path fill="none" d="M361.8754 4871.75 L361.8754 4915.625" clip-path="url(#clipPath2)"/>
      <path d="M361.8754 4923.625 L366.8754 4911.625 L361.8754 4914.625 L356.8754 4911.625 Z" clip-path="url(#clipPath2)" stroke="none"/>
      <rect x="343.8676" y="4881.875" clip-path="url(#clipPath2)" fill="white" width="36.0156" height="21.875" stroke="none"/>
      <text x="345.8676" font-size="16px" y="4898.3594" clip-path="url(#clipPath2)" font-family="'Liberation Sans'" stroke="none" xml:space="preserve">Evet</text>
      <path fill="none" d="M211.8354 4796.75 L138 4796.75" clip-path="url(#clipPath2)"/>
      <path d="M130 4796.75 L142 4801.75 L139 4796.75 L142 4791.75 Z" clip-path="url(#clipPath2)" stroke="none"/>
      <rect x="159.5238" y="4785.8125" clip-path="url(#clipPath2)" fill="white" width="42.2266" height="21.875" stroke="none"/>
      <text x="161.5238" font-size="16px" y="4802.2969" clip-path="url(#clipPath2)" font-family="'Liberation Sans'" stroke="none" xml:space="preserve">Hayır</text>
      <path fill="none" d="M361.8754 5073.625 L361.8754 5117.4746" clip-path="url(#clipPath2)"/>
      <path d="M361.8754 5125.4746 L366.8754 5113.4746 L361.8754 5116.4746 L356.8754 5113.4746 Z" clip-path="url(#clipPath2)" stroke="none"/>
      <rect x="343.8676" y="5083.75" clip-path="url(#clipPath2)" fill="white" width="36.0156" height="21.875" stroke="none"/>
      <text x="345.8676" font-size="16px" y="5100.2344" clip-path="url(#clipPath2)" font-family="'Liberation Sans'" stroke="none" xml:space="preserve">Evet</text>
      <path fill="none" d="M361.8754 5250.5 L361.8754 5272.5" clip-path="url(#clipPath2)"/>
      <path d="M361.8754 5280.5 L366.8754 5268.5 L361.8754 5271.5 L356.8754 5268.5 Z" clip-path="url(#clipPath2)" stroke="none"/>
      <path fill="none" d="M361.8754 5430.5 L361.8754 5474.3496" clip-path="url(#clipPath2)"/>
      <path d="M361.8754 5482.3496 L366.8754 5470.3496 L361.8754 5473.3496 L356.8754 5470.3496 Z" clip-path="url(#clipPath2)" stroke="none"/>
      <rect x="343.8676" y="5440.625" clip-path="url(#clipPath2)" fill="white" width="36.0156" height="21.875" stroke="none"/>
      <text x="345.8676" font-size="16px" y="5457.1094" clip-path="url(#clipPath2)" font-family="'Liberation Sans'" stroke="none" xml:space="preserve">Evet</text>
      <path fill="none" d="M511.8754 4998.625 L519.3754 4998.625 L522.6567 4999.25 L525.0004 5001.125 L526.4067 5004.25 L526.8754 5008.625 L526.8754 5534.875 L526.2504 5539.25 L524.3754 5542.375 L521.2504 5544.25 L516.8754 5544.875 L489.8754 5544.875" clip-path="url(#clipPath2)"/>
      <path d="M481.8754 5544.875 L493.8754 5549.875 L490.8754 5544.875 L493.8754 5539.875 Z" clip-path="url(#clipPath2)" stroke="none"/>
      <rect x="505.7621" y="4999.625" clip-path="url(#clipPath2)" fill="white" width="42.2266" height="21.875" stroke="none"/>
      <text x="507.7621" font-size="16px" y="5016.1094" clip-path="url(#clipPath2)" font-family="'Liberation Sans'" stroke="none" xml:space="preserve">Hayır</text>
      <path fill="none" d="M361.8754 5607.375 L361.8754 5629.375" clip-path="url(#clipPath2)"/>
      <path d="M361.8754 5637.375 L366.8754 5625.375 L361.8754 5628.375 L356.8754 5625.375 Z" clip-path="url(#clipPath2)" stroke="none"/>
      <path fill="none" d="M361.8754 5787.375 L361.8754 5831.2246" clip-path="url(#clipPath2)"/>
      <path d="M361.8754 5839.2246 L366.8754 5827.2246 L361.8754 5830.2246 L356.8754 5827.2246 Z" clip-path="url(#clipPath2)" stroke="none"/>
      <rect x="343.8676" y="5797.5" clip-path="url(#clipPath2)" fill="white" width="36.0156" height="21.875" stroke="none"/>
      <text x="345.8676" font-size="16px" y="5813.9844" clip-path="url(#clipPath2)" font-family="'Liberation Sans'" stroke="none" xml:space="preserve">Evet</text>
      <path fill="none" d="M211.8354 5712.375 L138 5712.375" clip-path="url(#clipPath2)"/>
      <path d="M130 5712.375 L142 5717.375 L139 5712.375 L142 5707.375 Z" clip-path="url(#clipPath2)" stroke="none"/>
      <rect x="159.5238" y="5701.4375" clip-path="url(#clipPath2)" fill="white" width="42.2266" height="21.875" stroke="none"/>
      <text x="161.5238" font-size="16px" y="5717.9219" clip-path="url(#clipPath2)" font-family="'Liberation Sans'" stroke="none" xml:space="preserve">Hayır</text>
      <path fill="none" d="M361.8754 5964.25 L361.8754 5986.25" clip-path="url(#clipPath2)"/>
      <path d="M361.8754 5994.25 L366.8754 5982.25 L361.8754 5985.25 L356.8754 5982.25 Z" clip-path="url(#clipPath2)" stroke="none"/>
      <path fill="none" d="M511.8754 6069.25 L585.7108 6069.25" clip-path="url(#clipPath2)"/>
      <path d="M593.7108 6069.25 L581.7108 6064.25 L584.7108 6069.25 L581.7108 6074.25 Z" clip-path="url(#clipPath2)" stroke="none"/>
      <rect x="522.0004" y="6058.3125" clip-path="url(#clipPath2)" fill="white" width="42.2266" height="21.875" stroke="none"/>
      <text x="524.0004" font-size="16px" y="6074.7969" clip-path="url(#clipPath2)" font-family="'Liberation Sans'" stroke="none" xml:space="preserve">Hayır</text>
      <path fill="none" d="M211.8354 5355.5 L138 5355.5" clip-path="url(#clipPath2)"/>
      <path d="M130 5355.5 L142 5360.5 L139 5355.5 L142 5350.5 Z" clip-path="url(#clipPath2)" stroke="none"/>
      <rect x="159.5238" y="5344.5625" clip-path="url(#clipPath2)" fill="white" width="42.2266" height="21.875" stroke="none"/>
      <text x="161.5238" font-size="16px" y="5361.0469" clip-path="url(#clipPath2)" font-family="'Liberation Sans'" stroke="none" xml:space="preserve">Hayır</text>
      <path fill="none" d="M361.8754 6144.25 L361.8754 6188.125" clip-path="url(#clipPath2)"/>
      <path d="M361.8754 6196.125 L366.8754 6184.125 L361.8754 6187.125 L356.8754 6184.125 Z" clip-path="url(#clipPath2)" stroke="none"/>
      <rect x="343.8676" y="6154.375" clip-path="url(#clipPath2)" fill="white" width="36.0156" height="21.875" stroke="none"/>
      <text x="345.8676" font-size="16px" y="6170.8594" clip-path="url(#clipPath2)" font-family="'Liberation Sans'" stroke="none" xml:space="preserve">Evet</text>
      <path fill="none" d="M361.8754 6346.125 L361.8754 6389.9746" clip-path="url(#clipPath2)"/>
      <path d="M361.8754 6397.9746 L366.8754 6385.9746 L361.8754 6388.9746 L356.8754 6385.9746 Z" clip-path="url(#clipPath2)" stroke="none"/>
      <rect x="343.8676" y="6356.25" clip-path="url(#clipPath2)" fill="white" width="36.0156" height="21.875" stroke="none"/>
      <text x="345.8676" font-size="16px" y="6372.7344" clip-path="url(#clipPath2)" font-family="'Liberation Sans'" stroke="none" xml:space="preserve">Evet</text>
      <path fill="none" d="M361.8754 6523 L361.8754 6545" clip-path="url(#clipPath2)"/>
      <path d="M361.8754 6553 L366.8754 6541 L361.8754 6544 L356.8754 6541 Z" clip-path="url(#clipPath2)" stroke="none"/>
      <path fill="none" d="M511.8754 6271.125 L519.3754 6271.125 L522.6567 6271.75 L525.0004 6273.625 L526.4067 6276.75 L526.8754 6281.125 L526.8754 6789.375 L526.2504 6793.75 L524.3754 6796.875 L521.2504 6798.75 L516.8754 6799.375 L434.8754 6799.375" clip-path="url(#clipPath2)"/>
      <path d="M426.8754 6799.375 L438.8754 6804.375 L435.8754 6799.375 L438.8754 6794.375 Z" clip-path="url(#clipPath2)" stroke="none"/>
      <rect x="505.7621" y="6272.125" clip-path="url(#clipPath2)" fill="white" width="42.2266" height="21.875" stroke="none"/>
      <text x="507.7621" font-size="16px" y="6288.6094" clip-path="url(#clipPath2)" font-family="'Liberation Sans'" stroke="none" xml:space="preserve">Hayır</text>
      <path fill="none" d="M361.8754 6703 L361.8754 6746.8496" clip-path="url(#clipPath2)"/>
      <path d="M361.8754 6754.8496 L366.8754 6742.8496 L361.8754 6745.8496 L356.8754 6742.8496 Z" clip-path="url(#clipPath2)" stroke="none"/>
      <rect x="343.8676" y="6713.125" clip-path="url(#clipPath2)" fill="white" width="36.0156" height="21.875" stroke="none"/>
      <text x="345.8676" font-size="16px" y="6729.6094" clip-path="url(#clipPath2)" font-family="'Liberation Sans'" stroke="none" xml:space="preserve">Evet</text>
      <path fill="none" d="M211.8354 6628 L138 6628" clip-path="url(#clipPath2)"/>
      <path d="M130 6628 L142 6633 L139 6628 L142 6623 Z" clip-path="url(#clipPath2)" stroke="none"/>
      <rect x="159.5238" y="6617.0625" clip-path="url(#clipPath2)" fill="white" width="42.2266" height="21.875" stroke="none"/>
      <text x="161.5238" font-size="16px" y="6633.5469" clip-path="url(#clipPath2)" font-family="'Liberation Sans'" stroke="none" xml:space="preserve">Hayır</text>
      <path fill="none" d="M511.8754 349 L526.8754 349 L526.8754 887.4375 L489.8754 887.4375" clip-path="url(#clipPath2)" stroke="black"/>
      <path fill="black" d="M481.8754 887.4375 L493.8754 892.4375 L490.8754 887.4375 L493.8754 882.4375 Z" clip-path="url(#clipPath2)" stroke="none"/>
      <text x="510.5522" y="342.1699" clip-path="url(#clipPath2)" fill="black" font-family="sans-serif" stroke="none" xml:space="preserve">Evet</text>
      <path fill="none" d="M361.8754 949.9375 L361.8754 971.9375" clip-path="url(#clipPath2)" stroke="black"/>
      <path fill="black" d="M361.8754 979.9375 L366.8754 967.9375 L361.8754 970.9375 L356.8754 967.9375 Z" clip-path="url(#clipPath2)" stroke="none"/>
      <path fill="none" d="M211.8461 1054.9375 L196.8754 1054.9375 L196.8754 1575.4062 L233.8315 1575.4062" clip-path="url(#clipPath2)" stroke="black"/>
      <path fill="black" d="M241.8315 1575.4062 L229.8315 1570.4062 L232.8315 1575.4062 L229.8315 1580.4062 Z" clip-path="url(#clipPath2)" stroke="none"/>
      <path fill="none" d="M361.8754 1482.9062 L361.8754 1504.877" clip-path="url(#clipPath2)" stroke="black"/>
      <path fill="black" d="M361.8754 1512.877 L366.8754 1500.877 L361.8754 1503.877 L356.8754 1500.877 Z" clip-path="url(#clipPath2)" stroke="none"/>
      <path fill="none" d="M361.8754 794.9375 L361.8754 816.9082" clip-path="url(#clipPath2)" stroke="black"/>
      <path fill="black" d="M361.8754 824.9082 L366.8754 812.9082 L361.8754 815.9082 L356.8754 812.9082 Z" clip-path="url(#clipPath2)" stroke="none"/>
      <path fill="none" d="M361.8754 424 L361.8754 463.9688" clip-path="url(#clipPath2)" stroke="black"/>
      <path fill="black" d="M361.8754 471.9688 L366.8754 459.9688 L361.8754 462.9688 L356.8754 459.9688 Z" clip-path="url(#clipPath2)" stroke="none"/>
      <text x="365.8754" y="447.2637" clip-path="url(#clipPath2)" fill="black" font-family="sans-serif" stroke="none" xml:space="preserve">Hayır</text>
      <path fill="none" d="M361.8754 621.9688 L361.8754 661.8906" clip-path="url(#clipPath2)" stroke="black"/>
      <path fill="black" d="M361.8754 669.8906 L366.8754 657.8906 L361.8754 660.8906 L356.8754 657.8906 Z" clip-path="url(#clipPath2)" stroke="none"/>
      <text x="365.8754" y="645.2324" clip-path="url(#clipPath2)" fill="black" font-family="sans-serif" stroke="none" xml:space="preserve">Evet</text>
      <path fill="none" d="M211.8354 546.9688 L138 546.9688" clip-path="url(#clipPath2)" stroke="black"/>
      <path fill="black" d="M130 546.9688 L142 551.9688 L139 546.9688 L142 541.9688 Z" clip-path="url(#clipPath2)" stroke="none"/>
      <text x="168.0043" y="562.1074" clip-path="url(#clipPath2)" fill="black" font-family="sans-serif" stroke="none" xml:space="preserve">Hayır</text>
      <path fill="none" d="M361.8754 1129.9375 L361.8754 1169.9062" clip-path="url(#clipPath2)" stroke="black"/>
      <path fill="black" d="M361.8754 1177.9062 L366.8754 1165.9062 L361.8754 1168.9062 L356.8754 1165.9062 Z" clip-path="url(#clipPath2)" stroke="none"/>
      <text x="365.8754" y="1153.2012" clip-path="url(#clipPath2)" fill="black" font-family="sans-serif" stroke="none" xml:space="preserve">Hayır</text>
      <path fill="none" d="M361.8754 1327.9062 L361.8754 1349.877" clip-path="url(#clipPath2)" stroke="black"/>
      <path fill="black" d="M361.8754 1357.877 L366.8754 1345.877 L361.8754 1348.877 L356.8754 1345.877 Z" clip-path="url(#clipPath2)" stroke="none"/>
      <path fill="none" d="M511.8754 1252.9062 L585.7108 1252.9062" clip-path="url(#clipPath2)" stroke="black"/>
      <path fill="black" d="M593.7108 1252.9062 L581.7108 1247.9062 L584.7108 1252.9062 L581.7108 1257.9062 Z" clip-path="url(#clipPath2)" stroke="none"/>
      <text x="524.0004" y="1268.0449" clip-path="url(#clipPath2)" fill="black" font-family="sans-serif" stroke="none" xml:space="preserve">Hayır</text>
      <path fill="none" d="M361.8754 3447.375 L361.8754 3487.2969" clip-path="url(#clipPath2)" stroke="black"/>
      <path fill="black" d="M361.8754 3495.2969 L366.8754 3483.2969 L361.8754 3486.2969 L356.8754 3483.2969 Z" clip-path="url(#clipPath2)" stroke="none"/>
      <text x="365.8754" y="3470.6387" clip-path="url(#clipPath2)" fill="black" font-family="sans-serif" stroke="none" xml:space="preserve">Evet</text>
      <path fill="none" d="M361.8754 3620.3438 L361.8754 3642.3438" clip-path="url(#clipPath2)" stroke="black"/>
      <path fill="black" d="M361.8754 3650.3438 L366.8754 3638.3438 L361.8754 3641.3438 L356.8754 3638.3438 Z" clip-path="url(#clipPath2)" stroke="none"/>
      <path fill="none" d="M361.8754 3800.3438 L361.8754 3840.2656" clip-path="url(#clipPath2)" stroke="black"/>
      <path fill="black" d="M361.8754 3848.2656 L366.8754 3836.2656 L361.8754 3839.2656 L356.8754 3836.2656 Z" clip-path="url(#clipPath2)" stroke="none"/>
      <text x="365.8754" y="3823.6074" clip-path="url(#clipPath2)" fill="black" font-family="sans-serif" stroke="none" xml:space="preserve">Evet</text>
      <path fill="none" d="M511.8754 3725.3438 L803.7508 3725.3438 L803.7508 3827.8125" clip-path="url(#clipPath2)" stroke="black"/>
      <path fill="black" d="M803.7508 3835.8125 L808.7508 3823.8125 L803.7508 3826.8125 L798.7508 3823.8125 Z" clip-path="url(#clipPath2)" stroke="none"/>
      <text x="524.0004" y="3740.4824" clip-path="url(#clipPath2)" fill="black" font-family="sans-serif" stroke="none" xml:space="preserve">Hayır</text>
      <path fill="none" d="M953.7508 3910.8125 L1032.7198 3910.8125 L1032.7198 4205.7441" clip-path="url(#clipPath2)" stroke="black"/>
      <path fill="black" d="M1032.7198 4213.7441 L1037.7198 4201.7441 L1032.7198 4204.7441 L1027.7198 4201.7441 Z" clip-path="url(#clipPath2)" stroke="none"/>
      <text x="965.8758" y="3925.9512" clip-path="url(#clipPath2)" fill="black" font-family="sans-serif" stroke="none" xml:space="preserve">Evet</text>
      <path fill="none" d="M803.7508 3985.8125 L803.7508 4038.283" clip-path="url(#clipPath2)" stroke="black"/>
      <path fill="black" d="M803.7508 4046.283 L808.7508 4034.283 L803.7508 4037.283 L798.7508 4034.283 Z" clip-path="url(#clipPath2)" stroke="none"/>
      <text x="807.7508" y="4009.0762" clip-path="url(#clipPath2)" fill="black" font-family="sans-serif" stroke="none" xml:space="preserve">Hayır</text>
      <path fill="none" d="M361.8754 3973.3125 L361.8754 4007.8125" clip-path="url(#clipPath2)" stroke="black"/>
      <path fill="black" d="M361.8754 4015.8125 L366.8754 4003.8125 L361.8754 4006.8125 L356.8754 4003.8125 Z" clip-path="url(#clipPath2)" stroke="none"/>
      <path fill="none" d="M361.8754 4165.8125 L361.8754 4205.7344" clip-path="url(#clipPath2)" stroke="black"/>
      <path fill="black" d="M361.8754 4213.7344 L366.8754 4201.7344 L361.8754 4204.7344 L356.8754 4201.7344 Z" clip-path="url(#clipPath2)" stroke="none"/>
      <text x="365.8754" y="4189.0762" clip-path="url(#clipPath2)" fill="black" font-family="sans-serif" stroke="none" xml:space="preserve">Evet</text>
      <path fill="none" d="M511.8754 4090.8125 L585.7108 4090.8125" clip-path="url(#clipPath2)" stroke="black"/>
      <path fill="black" d="M593.7108 4090.8125 L581.7108 4085.8125 L584.7108 4090.8125 L581.7108 4095.8125 Z" clip-path="url(#clipPath2)" stroke="none"/>
      <text x="524.0004" y="4105.9512" clip-path="url(#clipPath2)" fill="black" font-family="sans-serif" stroke="none" xml:space="preserve">Hayır</text>
      <path fill="none" d="M361.8754 4338.7812 L361.8754 4360.7812" clip-path="url(#clipPath2)" stroke="black"/>
      <path fill="black" d="M361.8754 4368.7812 L366.8754 4356.7812 L361.8754 4359.7812 L356.8754 4356.7812 Z" clip-path="url(#clipPath2)" stroke="none"/>
      <path fill="none" d="M361.8754 4518.7812 L361.8754 4558.7031" clip-path="url(#clipPath2)" stroke="black"/>
      <path fill="black" d="M361.8754 4566.7031 L366.8754 4554.7031 L361.8754 4557.7031 L356.8754 4554.7031 Z" clip-path="url(#clipPath2)" stroke="none"/>
      <text x="365.8754" y="4542.0449" clip-path="url(#clipPath2)" fill="black" font-family="sans-serif" stroke="none" xml:space="preserve">Evet</text>
      <path fill="none" d="M511.8754 4443.7812 L585.7108 4443.7812" clip-path="url(#clipPath2)" stroke="black"/>
      <path fill="black" d="M593.7108 4443.7812 L581.7108 4438.7812 L584.7108 4443.7812 L581.7108 4448.7812 Z" clip-path="url(#clipPath2)" stroke="none"/>
      <text x="524.0004" y="4458.9199" clip-path="url(#clipPath2)" fill="black" font-family="sans-serif" stroke="none" xml:space="preserve">Hayır</text>
    </g>
  </g>
</svg>
